Verilog/pixelState_tb.vcd
$date
	Thu Nov 11 17:45:42 2021
$end
$version
	Icarus Verilog
$end
$timescale
	1ps
$end
$scope module pixelState_tb $end
$var wire 1 ! anaReset $end
$var wire 1 " anaRest $end
$var wire 1 # convert $end
$var wire 8 $ pixData1 [7:0] $end
$var wire 8 % pixData2 [7:0] $end
$var wire 8 & pixData3 [7:0] $end
$var wire 8 ' pixData4 [7:0] $end
$var wire 1 ( read4 $end
$var wire 1 ) read3 $end
$var wire 1 * read2 $end
$var wire 1 + read1 $end
$var wire 1 , expose $end
$var wire 1 - erase $end
$var wire 1 . anaRamp $end
$var wire 1 / anaBias1 $end
$var reg 1 0 clk $end
$var reg 8 1 data [7:0] $end
$var reg 32 2 pixelDataOut [31:0] $end
$var reg 1 3 reset $end
$scope module A1 $end
$var wire 1 . RAMP $end
$var wire 1 " RESET $end
$var wire 1 / VBN1 $end
$var wire 8 4 pixData1 [7:0] $end
$var wire 8 5 pixData2 [7:0] $end
$var wire 8 6 pixData3 [7:0] $end
$var wire 8 7 pixData4 [7:0] $end
$var wire 1 ( READ4 $end
$var wire 1 ) READ3 $end
$var wire 1 * READ2 $end
$var wire 1 + READ1 $end
$var wire 1 , EXPOSE $end
$var wire 1 - ERASE $end
$scope module ps1 $end
$var wire 8 8 DATA [7:0] $end
$var wire 1 . RAMP $end
$var wire 1 " RESET $end
$var wire 1 / VBN1 $end
$var wire 1 + READ $end
$var wire 1 , EXPOSE $end
$var wire 1 - ERASE $end
$var reg 1 9 cmp $end
$var reg 8 : p_data [7:0] $end
$var real 1 ; adc $end
$var real 1 < lsb $end
$var real 1 = tmp $end
$var real 1 > v_erase $end
$upscope $end
$scope module ps2 $end
$var wire 8 ? DATA [7:0] $end
$var wire 1 . RAMP $end
$var wire 1 " RESET $end
$var wire 1 / VBN1 $end
$var wire 1 * READ $end
$var wire 1 , EXPOSE $end
$var wire 1 - ERASE $end
$var reg 1 @ cmp $end
$var reg 8 A p_data [7:0] $end
$var real 1 B adc $end
$var real 1 C lsb $end
$var real 1 D tmp $end
$var real 1 E v_erase $end
$upscope $end
$scope module ps3 $end
$var wire 8 F DATA [7:0] $end
$var wire 1 . RAMP $end
$var wire 1 " RESET $end
$var wire 1 / VBN1 $end
$var wire 1 ) READ $end
$var wire 1 , EXPOSE $end
$var wire 1 - ERASE $end
$var reg 1 G cmp $end
$var reg 8 H p_data [7:0] $end
$var real 1 I adc $end
$var real 1 J lsb $end
$var real 1 K tmp $end
$var real 1 L v_erase $end
$upscope $end
$scope module ps4 $end
$var wire 8 M DATA [7:0] $end
$var wire 1 . RAMP $end
$var wire 1 " RESET $end
$var wire 1 / VBN1 $end
$var wire 1 ( READ $end
$var wire 1 , EXPOSE $end
$var wire 1 - ERASE $end
$var reg 1 N cmp $end
$var reg 8 O p_data [7:0] $end
$var real 1 P adc $end
$var real 1 Q lsb $end
$var real 1 R tmp $end
$var real 1 S v_erase $end
$upscope $end
$upscope $end
$scope module fsm1 $end
$var wire 1 0 clk $end
$var wire 8 T pixData [7:0] $end
$var wire 1 3 reset $end
$var reg 1 U convert $end
$var reg 1 - erase $end
$var reg 1 , expose $end
$var reg 3 V next_state [2:0] $end
$var reg 1 + read1 $end
$var reg 1 * read2 $end
$var reg 1 ) read3 $end
$var reg 1 ( read4 $end
$var reg 3 W state [2:0] $end
$var integer 32 X counter [31:0] $end
$upscope $end
$upscope $end
$enddefinitions $end
#500000
$dumpvars
b0 X
b0 W
b0 V
0U
bz T
r1.2 S
r0 R
r0.004705882352941176 Q
r0.004705882352941176 P
bx O
1N
bx M
r1.2 L
r0 K
r0.004705882352941176 J
r0.004705882352941176 I
bx H
1G
bx F
r1.2 E
r0 D
r0.004705882352941176 C
r0.004705882352941176 B
bx A
1@
bx ?
r1.2 >
r0 =
r0.004705882352941176 <
r0.004705882352941176 ;
bx :
19
bx 8
bx 7
bx 6
bx 5
bx 4
03
b0 2
b0 1
10
x/
x.
x-
x,
x+
x*
x)
x(
bx '
bx &
bx %
bx $
z#
z"
1!
$end
#1000000
b0 '
b0 7
b0 M
b0 &
b0 6
b0 F
b0 %
b0 5
b0 ?
b0 $
b0 4
b0 8
r0 P
0N
b0 O
r1.2 R
r0 I
0G
b0 H
r1.2 K
r0 B
0@
b0 A
r1.2 D
r0 ;
09
b0 :
r1.2 =
0,
0(
0)
0*
0+
1-
0.
0/
00
#1500000
r0.004705882352941176 P
r0.004705882352941176 I
r0.004705882352941176 B
r0.004705882352941176 ;
x.
b1 X
10
#2000000
0.
00
#2500000
r0.009411764705882352 ;
r0.009411764705882352 B
r0.009411764705882352 I
r0.009411764705882352 P
x.
b10 X
10
#3000000
0.
00
#3500000
r0.01411764705882353 P
r0.01411764705882353 I
r0.01411764705882353 B
r0.01411764705882353 ;
x.
b11 X
10
#4000000
0.
00
#4500000
r0.0188235294117647 ;
r0.0188235294117647 B
r0.0188235294117647 I
r0.0188235294117647 P
x.
b100 X
10
#5000000
0.
00
#5500000
r0.02352941176470588 P
r0.02352941176470588 I
r0.02352941176470588 B
r0.02352941176470588 ;
x.
b101 X
10
#6000000
0.
00
#6500000
b111 W
b1 V
r0.02823529411764706 ;
r0.02823529411764706 B
r0.02823529411764706 I
r0.02823529411764706 P
x.
b110 X
10
#7000000
r0 ;
r0 B
r0 I
r0 P
0-
0.
00
#7500000
b1 W
r0.004705882352941176 P
r0.004705882352941176 I
r0.004705882352941176 B
r0.004705882352941176 ;
x.
b0 X
10
#8000000
1,
0.
00
#8500000
r0.009411764705882352 ;
r0.009411764705882352 B
r0.009411764705882352 I
r0.009411764705882352 P
r1.197647058823529 R
r1.197647058823529 K
r1.197647058823529 D
r1.197647058823529 =
x.
1/
b1 X
10
#9000000
0.
0/
00
#9500000
r0.01411764705882353 P
r0.01411764705882353 I
r0.01411764705882353 B
r0.01411764705882353 ;
r1.195294117647059 =
r1.195294117647059 D
r1.195294117647059 K
r1.195294117647059 R
x.
1/
b10 X
10
#10000000
0.
0/
00
#10500000
r0.0188235294117647 ;
r0.0188235294117647 B
r0.0188235294117647 I
r0.0188235294117647 P
r1.192941176470588 R
r1.192941176470588 K
r1.192941176470588 D
r1.192941176470588 =
x.
1/
b11 X
10
#11000000
0.
0/
00
#11500000
r0.02352941176470588 P
r0.02352941176470588 I
r0.02352941176470588 B
r0.02352941176470588 ;
r1.190588235294117 =
r1.190588235294117 D
r1.190588235294117 K
r1.190588235294117 R
x.
1/
b100 X
10
#12000000
0.
0/
00
#12500000
r0.02823529411764706 ;
r0.02823529411764706 B
r0.02823529411764706 I
r0.02823529411764706 P
r1.188235294117647 R
r1.188235294117647 K
r1.188235294117647 D
r1.188235294117647 =
x.
1/
b101 X
10
#13000000
0.
0/
00
#13500000
r0.03294117647058824 P
r0.03294117647058824 I
r0.03294117647058824 B
r0.03294117647058824 ;
r1.185882352941176 =
r1.185882352941176 D
r1.185882352941176 K
r1.185882352941176 R
x.
1/
b110 X
10
#14000000
0.
0/
00
#14500000
r0.03764705882352942 ;
r0.03764705882352942 B
r0.03764705882352942 I
r0.03764705882352942 P
r1.183529411764705 R
r1.183529411764705 K
r1.183529411764705 D
r1.183529411764705 =
x.
1/
b111 X
10
#15000000
0.
0/
00
#15500000
r0.04235294117647059 P
r0.04235294117647059 I
r0.04235294117647059 B
r0.04235294117647059 ;
r1.181176470588235 =
r1.181176470588235 D
r1.181176470588235 K
r1.181176470588235 R
x.
1/
b1000 X
10
#16000000
0.
0/
00
#16500000
r0.04705882352941177 ;
r0.04705882352941177 B
r0.04705882352941177 I
r0.04705882352941177 P
r1.178823529411764 R
r1.178823529411764 K
r1.178823529411764 D
r1.178823529411764 =
x.
1/
b1001 X
10
#17000000
0.
0/
00
#17500000
r0.05176470588235295 P
r0.05176470588235295 I
r0.05176470588235295 B
r0.05176470588235295 ;
r1.176470588235293 =
r1.176470588235293 D
r1.176470588235293 K
r1.176470588235293 R
x.
1/
b1010 X
10
#18000000
0.
0/
00
#18500000
r0.05647058823529413 ;
r0.05647058823529413 B
r0.05647058823529413 I
r0.05647058823529413 P
r1.174117647058823 R
r1.174117647058823 K
r1.174117647058823 D
r1.174117647058823 =
x.
1/
b1011 X
10
#19000000
0.
0/
00
#19500000
r0.0611764705882353 P
r0.0611764705882353 I
r0.0611764705882353 B
r0.0611764705882353 ;
r1.171764705882352 =
r1.171764705882352 D
r1.171764705882352 K
r1.171764705882352 R
x.
1/
b1100 X
10
#20000000
0.
0/
00
#20500000
r0.06588235294117648 ;
r0.06588235294117648 B
r0.06588235294117648 I
r0.06588235294117648 P
r1.169411764705881 R
r1.169411764705881 K
r1.169411764705881 D
r1.169411764705881 =
x.
1/
b1101 X
10
#21000000
0.
0/
00
#21500000
r0.07058823529411765 P
r0.07058823529411765 I
r0.07058823529411765 B
r0.07058823529411765 ;
r1.167058823529411 =
r1.167058823529411 D
r1.167058823529411 K
r1.167058823529411 R
x.
1/
b1110 X
10
#22000000
0.
0/
00
#22500000
r0.07529411764705882 ;
r0.07529411764705882 B
r0.07529411764705882 I
r0.07529411764705882 P
r1.16470588235294 R
r1.16470588235294 K
r1.16470588235294 D
r1.16470588235294 =
x.
1/
b1111 X
10
#23000000
0.
0/
00
#23500000
r0.07999999999999999 P
r0.07999999999999999 I
r0.07999999999999999 B
r0.07999999999999999 ;
r1.162352941176469 =
r1.162352941176469 D
r1.162352941176469 K
r1.162352941176469 R
x.
1/
b10000 X
10
#24000000
0.
0/
00
#24500000
r0.08470588235294116 ;
r0.08470588235294116 B
r0.08470588235294116 I
r0.08470588235294116 P
r1.159999999999999 R
r1.159999999999999 K
r1.159999999999999 D
r1.159999999999999 =
x.
1/
b10001 X
10
#25000000
0.
0/
00
#25500000
r0.08941176470588233 P
r0.08941176470588233 I
r0.08941176470588233 B
r0.08941176470588233 ;
r1.157647058823528 =
r1.157647058823528 D
r1.157647058823528 K
r1.157647058823528 R
x.
1/
b10010 X
10
#26000000
0.
0/
00
#26500000
r0.0941176470588235 ;
r0.0941176470588235 B
r0.0941176470588235 I
r0.0941176470588235 P
r1.155294117647057 R
r1.155294117647057 K
r1.155294117647057 D
r1.155294117647057 =
x.
1/
b10011 X
10
#27000000
0.
0/
00
#27500000
r0.09882352941176467 P
r0.09882352941176467 I
r0.09882352941176467 B
r0.09882352941176467 ;
r1.152941176470587 =
r1.152941176470587 D
r1.152941176470587 K
r1.152941176470587 R
x.
1/
b10100 X
10
#28000000
0.
0/
00
#28500000
r0.1035294117647058 ;
r0.1035294117647058 B
r0.1035294117647058 I
r0.1035294117647058 P
r1.150588235294116 R
r1.150588235294116 K
r1.150588235294116 D
r1.150588235294116 =
x.
1/
b10101 X
10
#29000000
0.
0/
00
#29500000
r0.108235294117647 P
r0.108235294117647 I
r0.108235294117647 B
r0.108235294117647 ;
r1.148235294117645 =
r1.148235294117645 D
r1.148235294117645 K
r1.148235294117645 R
x.
1/
b10110 X
10
#30000000
0.
0/
00
#30500000
r0.1129411764705882 ;
r0.1129411764705882 B
r0.1129411764705882 I
r0.1129411764705882 P
r1.145882352941175 R
r1.145882352941175 K
r1.145882352941175 D
r1.145882352941175 =
x.
1/
b10111 X
10
#31000000
0.
0/
00
#31500000
r0.1176470588235294 P
r0.1176470588235294 I
r0.1176470588235294 B
r0.1176470588235294 ;
r1.143529411764704 =
r1.143529411764704 D
r1.143529411764704 K
r1.143529411764704 R
x.
1/
b11000 X
10
#32000000
0.
0/
00
#32500000
r0.1223529411764705 ;
r0.1223529411764705 B
r0.1223529411764705 I
r0.1223529411764705 P
r1.141176470588233 R
r1.141176470588233 K
r1.141176470588233 D
r1.141176470588233 =
x.
1/
b11001 X
10
#33000000
0.
0/
00
#33500000
r0.1270588235294117 P
r0.1270588235294117 I
r0.1270588235294117 B
r0.1270588235294117 ;
r1.138823529411763 =
r1.138823529411763 D
r1.138823529411763 K
r1.138823529411763 R
x.
1/
b11010 X
10
#34000000
0.
0/
00
#34500000
r0.1317647058823529 ;
r0.1317647058823529 B
r0.1317647058823529 I
r0.1317647058823529 P
r1.136470588235292 R
r1.136470588235292 K
r1.136470588235292 D
r1.136470588235292 =
x.
1/
b11011 X
10
#35000000
0.
0/
00
#35500000
r0.136470588235294 P
r0.136470588235294 I
r0.136470588235294 B
r0.136470588235294 ;
r1.134117647058821 =
r1.134117647058821 D
r1.134117647058821 K
r1.134117647058821 R
x.
1/
b11100 X
10
#36000000
0.
0/
00
#36500000
r0.1411764705882352 ;
r0.1411764705882352 B
r0.1411764705882352 I
r0.1411764705882352 P
r1.131764705882351 R
r1.131764705882351 K
r1.131764705882351 D
r1.131764705882351 =
x.
1/
b11101 X
10
#37000000
0.
0/
00
#37500000
r0.1458823529411764 P
r0.1458823529411764 I
r0.1458823529411764 B
r0.1458823529411764 ;
r1.12941176470588 =
r1.12941176470588 D
r1.12941176470588 K
r1.12941176470588 R
x.
1/
b11110 X
10
#38000000
0.
0/
00
#38500000
r0.1505882352941176 ;
r0.1505882352941176 B
r0.1505882352941176 I
r0.1505882352941176 P
r1.127058823529409 R
r1.127058823529409 K
r1.127058823529409 D
r1.127058823529409 =
x.
1/
b11111 X
10
#39000000
0.
0/
00
#39500000
r0.1552941176470587 P
r0.1552941176470587 I
r0.1552941176470587 B
r0.1552941176470587 ;
r1.124705882352939 =
r1.124705882352939 D
r1.124705882352939 K
r1.124705882352939 R
x.
1/
b100000 X
10
#40000000
0.
0/
00
#40500000
r0.1599999999999999 ;
r0.1599999999999999 B
r0.1599999999999999 I
r0.1599999999999999 P
r1.122352941176468 R
r1.122352941176468 K
r1.122352941176468 D
r1.122352941176468 =
x.
1/
b100001 X
10
#41000000
0.
0/
00
#41500000
r0.1647058823529411 P
r0.1647058823529411 I
r0.1647058823529411 B
r0.1647058823529411 ;
r1.119999999999997 =
r1.119999999999997 D
r1.119999999999997 K
r1.119999999999997 R
x.
1/
b100010 X
10
#42000000
0.
0/
00
#42500000
r0.1694117647058822 ;
r0.1694117647058822 B
r0.1694117647058822 I
r0.1694117647058822 P
r1.117647058823527 R
r1.117647058823527 K
r1.117647058823527 D
r1.117647058823527 =
x.
1/
b100011 X
10
#43000000
0.
0/
00
#43500000
r0.1741176470588234 P
r0.1741176470588234 I
r0.1741176470588234 B
r0.1741176470588234 ;
r1.115294117647056 =
r1.115294117647056 D
r1.115294117647056 K
r1.115294117647056 R
x.
1/
b100100 X
10
#44000000
0.
0/
00
#44500000
r0.1788235294117646 ;
r0.1788235294117646 B
r0.1788235294117646 I
r0.1788235294117646 P
r1.112941176470585 R
r1.112941176470585 K
r1.112941176470585 D
r1.112941176470585 =
x.
1/
b100101 X
10
#45000000
0.
0/
00
#45500000
r0.1835294117647057 P
r0.1835294117647057 I
r0.1835294117647057 B
r0.1835294117647057 ;
r1.110588235294115 =
r1.110588235294115 D
r1.110588235294115 K
r1.110588235294115 R
x.
1/
b100110 X
10
#46000000
0.
0/
00
#46500000
r0.1882352941176469 ;
r0.1882352941176469 B
r0.1882352941176469 I
r0.1882352941176469 P
r1.108235294117644 R
r1.108235294117644 K
r1.108235294117644 D
r1.108235294117644 =
x.
1/
b100111 X
10
#47000000
0.
0/
00
#47500000
r0.1929411764705881 P
r0.1929411764705881 I
r0.1929411764705881 B
r0.1929411764705881 ;
r1.105882352941173 =
r1.105882352941173 D
r1.105882352941173 K
r1.105882352941173 R
x.
1/
b101000 X
10
#48000000
0.
0/
00
#48500000
r0.1976470588235293 ;
r0.1976470588235293 B
r0.1976470588235293 I
r0.1976470588235293 P
r1.103529411764703 R
r1.103529411764703 K
r1.103529411764703 D
r1.103529411764703 =
x.
1/
b101001 X
10
#49000000
0.
0/
00
#49500000
r0.2023529411764704 P
r0.2023529411764704 I
r0.2023529411764704 B
r0.2023529411764704 ;
r1.101176470588232 =
r1.101176470588232 D
r1.101176470588232 K
r1.101176470588232 R
x.
1/
b101010 X
10
#50000000
0.
0/
00
#50500000
r0.2070588235294116 ;
r0.2070588235294116 B
r0.2070588235294116 I
r0.2070588235294116 P
r1.098823529411761 R
r1.098823529411761 K
r1.098823529411761 D
r1.098823529411761 =
x.
1/
b101011 X
10
#51000000
0.
0/
00
#51500000
r0.2117647058823528 P
r0.2117647058823528 I
r0.2117647058823528 B
r0.2117647058823528 ;
r1.096470588235291 =
r1.096470588235291 D
r1.096470588235291 K
r1.096470588235291 R
x.
1/
b101100 X
10
#52000000
0.
0/
00
#52500000
r0.2164705882352939 ;
r0.2164705882352939 B
r0.2164705882352939 I
r0.2164705882352939 P
r1.09411764705882 R
r1.09411764705882 K
r1.09411764705882 D
r1.09411764705882 =
x.
1/
b101101 X
10
#53000000
0.
0/
00
#53500000
r0.2211764705882351 P
r0.2211764705882351 I
r0.2211764705882351 B
r0.2211764705882351 ;
r1.091764705882349 =
r1.091764705882349 D
r1.091764705882349 K
r1.091764705882349 R
x.
1/
b101110 X
10
#54000000
0.
0/
00
#54500000
r0.2258823529411763 ;
r0.2258823529411763 B
r0.2258823529411763 I
r0.2258823529411763 P
r1.089411764705879 R
r1.089411764705879 K
r1.089411764705879 D
r1.089411764705879 =
x.
1/
b101111 X
10
#55000000
0.
0/
00
#55500000
r0.2305882352941175 P
r0.2305882352941175 I
r0.2305882352941175 B
r0.2305882352941175 ;
r1.087058823529408 =
r1.087058823529408 D
r1.087058823529408 K
r1.087058823529408 R
x.
1/
b110000 X
10
#56000000
0.
0/
00
#56500000
r0.2352941176470586 ;
r0.2352941176470586 B
r0.2352941176470586 I
r0.2352941176470586 P
r1.084705882352937 R
r1.084705882352937 K
r1.084705882352937 D
r1.084705882352937 =
x.
1/
b110001 X
10
#57000000
0.
0/
00
#57500000
r0.2399999999999998 P
r0.2399999999999998 I
r0.2399999999999998 B
r0.2399999999999998 ;
r1.082352941176467 =
r1.082352941176467 D
r1.082352941176467 K
r1.082352941176467 R
x.
1/
b110010 X
10
#58000000
0.
0/
00
#58500000
r0.244705882352941 ;
r0.244705882352941 B
r0.244705882352941 I
r0.244705882352941 P
r1.079999999999996 R
r1.079999999999996 K
r1.079999999999996 D
r1.079999999999996 =
x.
1/
b110011 X
10
#59000000
0.
0/
00
#59500000
r0.2494117647058821 P
r0.2494117647058821 I
r0.2494117647058821 B
r0.2494117647058821 ;
r1.077647058823525 =
r1.077647058823525 D
r1.077647058823525 K
r1.077647058823525 R
x.
1/
b110100 X
10
#60000000
0.
0/
00
#60500000
r0.2541176470588233 ;
r0.2541176470588233 B
r0.2541176470588233 I
r0.2541176470588233 P
r1.075294117647055 R
r1.075294117647055 K
r1.075294117647055 D
r1.075294117647055 =
x.
1/
b110101 X
10
#61000000
0.
0/
00
#61500000
r0.2588235294117645 P
r0.2588235294117645 I
r0.2588235294117645 B
r0.2588235294117645 ;
r1.072941176470584 =
r1.072941176470584 D
r1.072941176470584 K
r1.072941176470584 R
x.
1/
b110110 X
10
#62000000
0.
0/
00
#62500000
r0.2635294117647057 ;
r0.2635294117647057 B
r0.2635294117647057 I
r0.2635294117647057 P
r1.070588235294113 R
r1.070588235294113 K
r1.070588235294113 D
r1.070588235294113 =
x.
1/
b110111 X
10
#63000000
0.
0/
00
#63500000
r0.2682352941176468 P
r0.2682352941176468 I
r0.2682352941176468 B
r0.2682352941176468 ;
r1.068235294117643 =
r1.068235294117643 D
r1.068235294117643 K
r1.068235294117643 R
x.
1/
b111000 X
10
#64000000
0.
0/
00
#64500000
r0.272941176470588 ;
r0.272941176470588 B
r0.272941176470588 I
r0.272941176470588 P
r1.065882352941172 R
r1.065882352941172 K
r1.065882352941172 D
r1.065882352941172 =
x.
1/
b111001 X
10
#65000000
0.
0/
00
#65500000
r0.2776470588235292 P
r0.2776470588235292 I
r0.2776470588235292 B
r0.2776470588235292 ;
r1.063529411764701 =
r1.063529411764701 D
r1.063529411764701 K
r1.063529411764701 R
x.
1/
b111010 X
10
#66000000
0.
0/
00
#66500000
r0.2823529411764704 ;
r0.2823529411764704 B
r0.2823529411764704 I
r0.2823529411764704 P
r1.061176470588231 R
r1.061176470588231 K
r1.061176470588231 D
r1.061176470588231 =
x.
1/
b111011 X
10
#67000000
0.
0/
00
#67500000
r0.2870588235294115 P
r0.2870588235294115 I
r0.2870588235294115 B
r0.2870588235294115 ;
r1.05882352941176 =
r1.05882352941176 D
r1.05882352941176 K
r1.05882352941176 R
x.
1/
b111100 X
10
#68000000
0.
0/
00
#68500000
r0.2917647058823527 ;
r0.2917647058823527 B
r0.2917647058823527 I
r0.2917647058823527 P
r1.056470588235289 R
r1.056470588235289 K
r1.056470588235289 D
r1.056470588235289 =
x.
1/
b111101 X
10
#69000000
0.
0/
00
#69500000
r0.2964705882352939 P
r0.2964705882352939 I
r0.2964705882352939 B
r0.2964705882352939 ;
r1.054117647058818 =
r1.054117647058818 D
r1.054117647058818 K
r1.054117647058818 R
x.
1/
b111110 X
10
#70000000
0.
0/
00
#70500000
r0.301176470588235 ;
r0.301176470588235 B
r0.301176470588235 I
r0.301176470588235 P
r1.051764705882348 R
r1.051764705882348 K
r1.051764705882348 D
r1.051764705882348 =
x.
1/
b111111 X
10
#71000000
0.
0/
00
#71500000
r0.3058823529411762 P
r0.3058823529411762 I
r0.3058823529411762 B
r0.3058823529411762 ;
r1.049411764705877 =
r1.049411764705877 D
r1.049411764705877 K
r1.049411764705877 R
x.
1/
b1000000 X
10
#72000000
0.
0/
00
#72500000
r0.3105882352941174 ;
r0.3105882352941174 B
r0.3105882352941174 I
r0.3105882352941174 P
r1.047058823529406 R
r1.047058823529406 K
r1.047058823529406 D
r1.047058823529406 =
x.
1/
b1000001 X
10
#73000000
0.
0/
00
#73500000
r0.3152941176470586 P
r0.3152941176470586 I
r0.3152941176470586 B
r0.3152941176470586 ;
r1.044705882352936 =
r1.044705882352936 D
r1.044705882352936 K
r1.044705882352936 R
x.
1/
b1000010 X
10
#74000000
0.
0/
00
#74500000
r0.3199999999999997 ;
r0.3199999999999997 B
r0.3199999999999997 I
r0.3199999999999997 P
r1.042352941176465 R
r1.042352941176465 K
r1.042352941176465 D
r1.042352941176465 =
x.
1/
b1000011 X
10
#75000000
0.
0/
00
#75500000
r0.3247058823529409 P
r0.3247058823529409 I
r0.3247058823529409 B
r0.3247058823529409 ;
r1.039999999999994 =
r1.039999999999994 D
r1.039999999999994 K
r1.039999999999994 R
x.
1/
b1000100 X
10
#76000000
0.
0/
00
#76500000
r0.3294117647058821 ;
r0.3294117647058821 B
r0.3294117647058821 I
r0.3294117647058821 P
r1.037647058823524 R
r1.037647058823524 K
r1.037647058823524 D
r1.037647058823524 =
x.
1/
b1000101 X
10
#77000000
0.
0/
00
#77500000
r0.3341176470588232 P
r0.3341176470588232 I
r0.3341176470588232 B
r0.3341176470588232 ;
r1.035294117647053 =
r1.035294117647053 D
r1.035294117647053 K
r1.035294117647053 R
x.
1/
b1000110 X
10
#78000000
0.
0/
00
#78500000
r0.3388235294117644 ;
r0.3388235294117644 B
r0.3388235294117644 I
r0.3388235294117644 P
r1.032941176470582 R
r1.032941176470582 K
r1.032941176470582 D
r1.032941176470582 =
x.
1/
b1000111 X
10
#79000000
0.
0/
00
#79500000
r0.3435294117647056 P
r0.3435294117647056 I
r0.3435294117647056 B
r0.3435294117647056 ;
r1.030588235294112 =
r1.030588235294112 D
r1.030588235294112 K
r1.030588235294112 R
x.
1/
b1001000 X
10
#80000000
0.
0/
00
#80500000
r0.3482352941176468 ;
r0.3482352941176468 B
r0.3482352941176468 I
r0.3482352941176468 P
r1.028235294117641 R
r1.028235294117641 K
r1.028235294117641 D
r1.028235294117641 =
x.
1/
b1001001 X
10
#81000000
0.
0/
00
#81500000
r0.3529411764705879 P
r0.3529411764705879 I
r0.3529411764705879 B
r0.3529411764705879 ;
r1.02588235294117 =
r1.02588235294117 D
r1.02588235294117 K
r1.02588235294117 R
x.
1/
b1001010 X
10
#82000000
0.
0/
00
#82500000
r0.3576470588235291 ;
r0.3576470588235291 B
r0.3576470588235291 I
r0.3576470588235291 P
r1.0235294117647 R
r1.0235294117647 K
r1.0235294117647 D
r1.0235294117647 =
x.
1/
b1001011 X
10
#83000000
0.
0/
00
#83500000
r0.3623529411764703 P
r0.3623529411764703 I
r0.3623529411764703 B
r0.3623529411764703 ;
r1.021176470588229 =
r1.021176470588229 D
r1.021176470588229 K
r1.021176470588229 R
x.
1/
b1001100 X
10
#84000000
0.
0/
00
#84500000
r0.3670588235294114 ;
r0.3670588235294114 B
r0.3670588235294114 I
r0.3670588235294114 P
r1.018823529411758 R
r1.018823529411758 K
r1.018823529411758 D
r1.018823529411758 =
x.
1/
b1001101 X
10
#85000000
0.
0/
00
#85500000
r0.3717647058823526 P
r0.3717647058823526 I
r0.3717647058823526 B
r0.3717647058823526 ;
r1.016470588235288 =
r1.016470588235288 D
r1.016470588235288 K
r1.016470588235288 R
x.
1/
b1001110 X
10
#86000000
0.
0/
00
#86500000
r0.3764705882352938 ;
r0.3764705882352938 B
r0.3764705882352938 I
r0.3764705882352938 P
r1.014117647058817 R
r1.014117647058817 K
r1.014117647058817 D
r1.014117647058817 =
x.
1/
b1001111 X
10
#87000000
0.
0/
00
#87500000
r0.381176470588235 P
r0.381176470588235 I
r0.381176470588235 B
r0.381176470588235 ;
r1.011764705882346 =
r1.011764705882346 D
r1.011764705882346 K
r1.011764705882346 R
x.
1/
b1010000 X
10
#88000000
0.
0/
00
#88500000
r0.3858823529411761 ;
r0.3858823529411761 B
r0.3858823529411761 I
r0.3858823529411761 P
r1.009411764705876 R
r1.009411764705876 K
r1.009411764705876 D
r1.009411764705876 =
x.
1/
b1010001 X
10
#89000000
0.
0/
00
#89500000
r0.3905882352941173 P
r0.3905882352941173 I
r0.3905882352941173 B
r0.3905882352941173 ;
r1.007058823529405 =
r1.007058823529405 D
r1.007058823529405 K
r1.007058823529405 R
x.
1/
b1010010 X
10
#90000000
0.
0/
00
#90500000
r0.3952941176470585 ;
r0.3952941176470585 B
r0.3952941176470585 I
r0.3952941176470585 P
r1.004705882352934 R
r1.004705882352934 K
r1.004705882352934 D
r1.004705882352934 =
x.
1/
b1010011 X
10
#91000000
0.
0/
00
#91500000
r0.3999999999999996 P
r0.3999999999999996 I
r0.3999999999999996 B
r0.3999999999999996 ;
r1.002352941176464 =
r1.002352941176464 D
r1.002352941176464 K
r1.002352941176464 R
x.
1/
b1010100 X
10
#92000000
0.
0/
00
#92500000
r0.4047058823529408 ;
r0.4047058823529408 B
r0.4047058823529408 I
r0.4047058823529408 P
r0.9999999999999932 R
r0.9999999999999932 K
r0.9999999999999932 D
r0.9999999999999932 =
x.
1/
b1010101 X
10
#93000000
0.
0/
00
#93500000
r0.409411764705882 P
r0.409411764705882 I
r0.409411764705882 B
r0.409411764705882 ;
r0.9976470588235227 =
r0.9976470588235227 D
r0.9976470588235227 K
r0.9976470588235227 R
x.
1/
b1010110 X
10
#94000000
0.
0/
00
#94500000
r0.4141176470588231 ;
r0.4141176470588231 B
r0.4141176470588231 I
r0.4141176470588231 P
r0.9952941176470521 R
r0.9952941176470521 K
r0.9952941176470521 D
r0.9952941176470521 =
x.
1/
b1010111 X
10
#95000000
0.
0/
00
#95500000
r0.4188235294117643 P
r0.4188235294117643 I
r0.4188235294117643 B
r0.4188235294117643 ;
r0.9929411764705816 =
r0.9929411764705816 D
r0.9929411764705816 K
r0.9929411764705816 R
x.
1/
b1011000 X
10
#96000000
0.
0/
00
#96500000
r0.4235294117647055 ;
r0.4235294117647055 B
r0.4235294117647055 I
r0.4235294117647055 P
r0.990588235294111 R
r0.990588235294111 K
r0.990588235294111 D
r0.990588235294111 =
x.
1/
b1011001 X
10
#97000000
0.
0/
00
#97500000
r0.4282352941176467 P
r0.4282352941176467 I
r0.4282352941176467 B
r0.4282352941176467 ;
r0.9882352941176404 =
r0.9882352941176404 D
r0.9882352941176404 K
r0.9882352941176404 R
x.
1/
b1011010 X
10
#98000000
0.
0/
00
#98500000
r0.4329411764705878 ;
r0.4329411764705878 B
r0.4329411764705878 I
r0.4329411764705878 P
r0.9858823529411699 R
r0.9858823529411699 K
r0.9858823529411699 D
r0.9858823529411699 =
x.
1/
b1011011 X
10
#99000000
0.
0/
00
#99500000
r0.437647058823529 P
r0.437647058823529 I
r0.437647058823529 B
r0.437647058823529 ;
r0.9835294117646993 =
r0.9835294117646993 D
r0.9835294117646993 K
r0.9835294117646993 R
x.
1/
b1011100 X
10
#100000000
0.
0/
00
#100500000
r0.4423529411764702 ;
r0.4423529411764702 B
r0.4423529411764702 I
r0.4423529411764702 P
r0.9811764705882288 R
r0.9811764705882288 K
r0.9811764705882288 D
r0.9811764705882288 =
x.
1/
b1011101 X
10
#101000000
0.
0/
00
#101500000
r0.4470588235294113 P
r0.4470588235294113 I
r0.4470588235294113 B
r0.4470588235294113 ;
r0.9788235294117582 =
r0.9788235294117582 D
r0.9788235294117582 K
r0.9788235294117582 R
x.
1/
b1011110 X
10
#102000000
0.
0/
00
#102500000
r0.4517647058823525 ;
r0.4517647058823525 B
r0.4517647058823525 I
r0.4517647058823525 P
r0.9764705882352877 R
r0.9764705882352877 K
r0.9764705882352877 D
r0.9764705882352877 =
x.
1/
b1011111 X
10
#103000000
0.
0/
00
#103500000
r0.4564705882352937 P
r0.4564705882352937 I
r0.4564705882352937 B
r0.4564705882352937 ;
r0.9741176470588171 =
r0.9741176470588171 D
r0.9741176470588171 K
r0.9741176470588171 R
x.
1/
b1100000 X
10
#104000000
0.
0/
00
#104500000
r0.4611764705882349 ;
r0.4611764705882349 B
r0.4611764705882349 I
r0.4611764705882349 P
r0.9717647058823465 R
r0.9717647058823465 K
r0.9717647058823465 D
r0.9717647058823465 =
x.
1/
b1100001 X
10
#105000000
0.
0/
00
