Verilog/pixelArray_tb.vcd
$date
	Wed Nov 17 08:34:04 2021
$end
$version
	Icarus Verilog
$end
$timescale
	1ps
$end
$scope module pixelArray_tb $end
$var wire 1 ! anaReset $end
$var wire 8 " pixData1 [7:0] $end
$var wire 8 # pixData2 [7:0] $end
$var wire 8 $ pixData3 [7:0] $end
$var wire 8 % pixData4 [7:0] $end
$var wire 1 & anaRamp $end
$var wire 1 ' anaBias1 $end
$var reg 1 ( clk $end
$var reg 1 ) convert $end
$var reg 8 * data1 [7:0] $end
$var reg 8 + data2 [7:0] $end
$var reg 8 , data3 [7:0] $end
$var reg 8 - data4 [7:0] $end
$var reg 1 . erase $end
$var reg 1 / expose $end
$var reg 3 0 next_state [2:0] $end
$var reg 8 1 pixelDataOut1 [7:0] $end
$var reg 8 2 pixelDataOut2 [7:0] $end
$var reg 1 3 read1 $end
$var reg 1 4 read2 $end
$var reg 1 5 reset $end
$var reg 3 6 state [2:0] $end
$var integer 32 7 counter [31:0] $end
$scope module A1 $end
$var wire 1 . ERASE $end
$var wire 1 / EXPOSE $end
$var wire 1 & RAMP $end
$var wire 1 3 READ1 $end
$var wire 1 4 READ2 $end
$var wire 1 ! RESET $end
$var wire 1 ' VBN1 $end
$var wire 8 8 pixData1 [7:0] $end
$var wire 8 9 pixData2 [7:0] $end
$var wire 8 : pixData3 [7:0] $end
$var wire 8 ; pixData4 [7:0] $end
$scope module ps1 $end
$var wire 8 < DATA [7:0] $end
$var wire 1 . ERASE $end
$var wire 1 / EXPOSE $end
$var wire 1 & RAMP $end
$var wire 1 3 READ $end
$var wire 1 ! RESET $end
$var wire 1 ' VBN1 $end
$var reg 1 = cmp $end
$var reg 8 > p_data [7:0] $end
$var real 1 ? adc $end
$var real 1 @ lsb $end
$var real 1 A tmp $end
$var real 1 B v_erase $end
$upscope $end
$scope module ps2 $end
$var wire 8 C DATA [7:0] $end
$var wire 1 . ERASE $end
$var wire 1 / EXPOSE $end
$var wire 1 & RAMP $end
$var wire 1 3 READ $end
$var wire 1 ! RESET $end
$var wire 1 ' VBN1 $end
$var reg 1 D cmp $end
$var reg 8 E p_data [7:0] $end
$var real 1 F adc $end
$var real 1 G lsb $end
$var real 1 H tmp $end
$var real 1 I v_erase $end
$upscope $end
$scope module ps3 $end
$var wire 8 J DATA [7:0] $end
$var wire 1 . ERASE $end
$var wire 1 / EXPOSE $end
$var wire 1 & RAMP $end
$var wire 1 4 READ $end
$var wire 1 ! RESET $end
$var wire 1 ' VBN1 $end
$var reg 1 K cmp $end
$var reg 8 L p_data [7:0] $end
$var real 1 M adc $end
$var real 1 N lsb $end
$var real 1 O tmp $end
$var real 1 P v_erase $end
$upscope $end
$scope module ps4 $end
$var wire 8 Q DATA [7:0] $end
$var wire 1 . ERASE $end
$var wire 1 / EXPOSE $end
$var wire 1 & RAMP $end
$var wire 1 4 READ $end
$var wire 1 ! RESET $end
$var wire 1 ' VBN1 $end
$var reg 1 R cmp $end
$var reg 8 S p_data [7:0] $end
$var real 1 T adc $end
$var real 1 U lsb $end
$var real 1 V tmp $end
$var real 1 W v_erase $end
$upscope $end
$upscope $end
$upscope $end
$enddefinitions $end
#500000
$dumpvars
r1.2 W
r0 V
r0.004705882352941176 U
r0 T
bx S
xR
bx Q
r1.2 P
r0 O
r0.004705882352941176 N
r0 M
bx L
xK
bx J
r1.2 I
r0 H
r0.004705882352941176 G
r0 F
bx E
xD
bx C
r1.2 B
r0 A
r0.004705882352941176 @
r0 ?
bx >
x=
bx <
bx ;
bx :
bx 9
bx 8
b0 7
b0 6
05
x4
x3
b0 2
b0 1
b0 0
x/
x.
b0 -
b0 ,
b0 +
b0 *
0)
1(
x'
0&
bx %
bx $
bx #
bx "
1!
$end
#1000000
b0 $
b0 :
b0 J
b0 %
b0 ;
b0 Q
b0 "
b0 8
b0 <
b0 #
b0 9
b0 C
0R
b0 S
r1.2 V
0K
b0 L
r1.2 O
0D
b0 E
r1.2 H
0=
b0 >
r1.2 A
0/
04
03
1.
0'
0(
#1500000
b1 7
1(
#2000000
0(
#2500000
b10 7
1(
#3000000
0(
#3500000
b11 7
1(
#4000000
0(
#4500000
b100 7
1(
#5000000
0(
#5500000
b101 7
1(
#6000000
0(
#6500000
b1 0
b111 6
b110 7
1(
#7000000
0.
0(
#7500000
b1 6
b0 7
1(
#8000000
1/
0(
#8500000
r1.196235294117647 V
r1.196705882352941 O
r1.198117647058824 H
r1.197647058823529 A
b1 7
1'
1(
#9000000
0'
0(
#9500000
r1.195294117647059 A
r1.196235294117647 H
r1.193411764705882 O
r1.192470588235294 V
b10 7
1'
1(
#10000000
0'
0(
#10500000
r1.188705882352941 V
r1.190117647058823 O
r1.194352941176471 H
r1.192941176470588 A
b11 7
1'
1(
#11000000
0'
0(
#11500000
r1.190588235294117 A
r1.192470588235294 H
r1.186823529411764 O
r1.184941176470588 V
b100 7
1'
1(
#12000000
0'
0(
#12500000
r1.181176470588235 V
r1.183529411764705 O
r1.190588235294118 H
r1.188235294117647 A
b101 7
1'
1(
#13000000
0'
0(
#13500000
r1.185882352941176 A
r1.188705882352941 H
r1.180235294117647 O
r1.177411764705883 V
b110 7
1'
1(
#14000000
0'
0(
#14500000
r1.17364705882353 V
r1.176941176470588 O
r1.186823529411765 H
r1.183529411764705 A
b111 7
1'
1(
#15000000
0'
0(
#15500000
r1.181176470588235 A
r1.184941176470588 H
r1.173647058823529 O
r1.169882352941177 V
b1000 7
1'
1(
#16000000
0'
0(
#16500000
r1.166117647058824 V
r1.17035294117647 O
r1.183058823529412 H
r1.178823529411764 A
b1001 7
1'
1(
#17000000
0'
0(
#17500000
r1.176470588235293 A
r1.181176470588235 H
r1.167058823529411 O
r1.162352941176471 V
b1010 7
1'
1(
#18000000
0'
0(
#18500000
r1.158588235294118 V
r1.163764705882352 O
r1.179294117647059 H
r1.174117647058823 A
b1011 7
1'
1(
#19000000
0'
0(
#19500000
r1.171764705882352 A
r1.177411764705883 H
r1.160470588235293 O
r1.154823529411765 V
b1100 7
1'
1(
#20000000
0'
0(
#20500000
r1.151058823529412 V
r1.157176470588234 O
r1.175529411764706 H
r1.169411764705881 A
b1101 7
1'
1(
#21000000
0'
0(
#21500000
r1.167058823529411 A
r1.17364705882353 H
r1.153882352941175 O
r1.147294117647059 V
b1110 7
1'
1(
#22000000
0'
0(
#22500000
r1.143529411764707 V
r1.150588235294117 O
r1.171764705882353 H
r1.16470588235294 A
b1111 7
1'
1(
#23000000
0'
0(
#23500000
r1.162352941176469 A
r1.169882352941177 H
r1.147294117647058 O
r1.139764705882354 V
b10000 7
1'
1(
#24000000
0'
0(
#24500000
r1.136000000000001 V
r1.143999999999999 O
r1.168 H
r1.159999999999999 A
b10001 7
1'
1(
#25000000
0'
0(
#25500000
r1.157647058823528 A
r1.166117647058824 H
r1.14070588235294 O
r1.132235294117648 V
b10010 7
1'
1(
#26000000
0'
0(
#26500000
r1.128470588235295 V
r1.137411764705881 O
r1.164235294117647 H
r1.155294117647057 A
b10011 7
1'
1(
#27000000
0'
0(
#27500000
r1.152941176470587 A
r1.162352941176471 H
r1.134117647058822 O
r1.124705882352942 V
b10100 7
1'
1(
#28000000
0'
0(
#28500000
r1.120941176470589 V
r1.130823529411763 O
r1.160470588235295 H
r1.150588235294116 A
b10101 7
1'
1(
#29000000
0'
0(
#29500000
r1.148235294117645 A
r1.158588235294118 H
r1.127529411764704 O
r1.117176470588236 V
b10110 7
1'
1(
#30000000
0'
0(
#30500000
r1.113411764705883 V
r1.124235294117645 O
r1.156705882352942 H
r1.145882352941175 A
b10111 7
1'
1(
#31000000
0'
0(
#31500000
r1.143529411764704 A
r1.154823529411765 H
r1.120941176470587 O
r1.109647058823531 V
b11000 7
1'
1(
#32000000
0'
0(
#32500000
r1.105882352941178 V
r1.117647058823528 O
r1.152941176470589 H
r1.141176470588233 A
b11001 7
1'
1(
#33000000
0'
0(
#33500000
r1.138823529411763 A
r1.151058823529412 H
r1.114352941176469 O
r1.102117647058825 V
b11010 7
1'
1(
#34000000
0'
0(
#34500000
r1.098352941176472 V
r1.11105882352941 O
r1.149176470588236 H
r1.136470588235292 A
b11011 7
1'
1(
#35000000
0'
0(
#35500000
r1.134117647058821 A
r1.147294117647059 H
r1.107764705882351 O
r1.094588235294119 V
b11100 7
1'
1(
#36000000
0'
0(
#36500000
r1.090823529411766 V
r1.104470588235292 O
r1.145411764705883 H
r1.131764705882351 A
b11101 7
1'
1(
#37000000
0'
0(
#37500000
r1.12941176470588 A
r1.143529411764707 H
r1.101176470588233 O
r1.087058823529413 V
b11110 7
1'
1(
#38000000
0'
0(
#38500000
r1.08329411764706 V
r1.097882352941174 O
r1.14164705882353 H
r1.127058823529409 A
b11111 7
1'
1(
#39000000
0'
0(
#39500000
r1.124705882352939 A
r1.139764705882354 H
r1.094588235294115 O
r1.079529411764707 V
b100000 7
1'
1(
#40000000
0'
0(
#40500000
r1.075764705882355 V
r1.091294117647057 O
r1.137882352941177 H
r1.122352941176468 A
b100001 7
1'
1(
#41000000
0'
0(
#41500000
r1.119999999999997 A
r1.136000000000001 H
r1.087999999999998 O
r1.072000000000002 V
b100010 7
1'
1(
#42000000
0'
0(
#42500000
r1.068235294117649 V
r1.084705882352939 O
r1.134117647058824 H
r1.117647058823527 A
b100011 7
1'
1(
#43000000
0'
0(
#43500000
r1.115294117647056 A
r1.132235294117648 H
r1.08141176470588 O
r1.064470588235296 V
b100100 7
1'
1(
#44000000
0'
0(
#44500000
r1.060705882352943 V
r1.078117647058821 O
r1.130352941176471 H
r1.112941176470585 A
b100101 7
1'
1(
#45000000
0'
0(
#45500000
r1.110588235294115 A
r1.128470588235295 H
r1.074823529411762 O
r1.05694117647059 V
b100110 7
1'
1(
#46000000
0'
0(
#46500000
r1.053176470588237 V
r1.071529411764703 O
r1.126588235294119 H
r1.108235294117644 A
b100111 7
1'
1(
#47000000
0'
0(
#47500000
r1.105882352941173 A
r1.124705882352942 H
r1.068235294117644 O
r1.049411764705884 V
b101000 7
1'
1(
#48000000
0'
0(
#48500000
r1.045647058823531 V
r1.064941176470585 O
r1.122823529411766 H
r1.103529411764703 A
b101001 7
1'
1(
#49000000
0'
0(
#49500000
r1.101176470588232 A
r1.120941176470589 H
r1.061647058823527 O
r1.041882352941178 V
b101010 7
1'
1(
#50000000
0'
0(
#50500000
r1.038117647058826 V
r1.058352941176468 O
r1.119058823529413 H
r1.098823529411761 A
b101011 7
1'
1(
#51000000
0'
0(
#51500000
r1.096470588235291 A
r1.117176470588236 H
r1.055058823529409 O
r1.034352941176473 V
b101100 7
1'
1(
#52000000
0'
0(
#52500000
r1.03058823529412 V
r1.05176470588235 O
r1.11529411764706 H
r1.09411764705882 A
b101101 7
1'
1(
#53000000
0'
0(
#53500000
r1.091764705882349 A
r1.113411764705883 H
r1.048470588235291 O
r1.026823529411767 V
b101110 7
1'
1(
#54000000
0'
0(
#54500000
r1.023058823529414 V
r1.045176470588232 O
r1.111529411764707 H
r1.089411764705879 A
b101111 7
1'
1(
#55000000
0'
0(
#55500000
r1.087058823529408 A
r1.109647058823531 H
r1.041882352941173 O
r1.019294117647061 V
b110000 7
1'
1(
#56000000
0'
0(
#56500000
r1.015529411764708 V
r1.038588235294114 O
r1.107764705882354 H
r1.084705882352937 A
b110001 7
1'
1(
#57000000
0'
0(
#57500000
r1.082352941176467 A
r1.105882352941178 H
r1.035294117647055 O
r1.011764705882355 V
b110010 7
1'
1(
#58000000
0'
0(
#58500000
r1.008000000000002 V
r1.031999999999996 O
r1.104000000000001 H
r1.079999999999996 A
b110011 7
1'
1(
#59000000
0'
0(
#59500000
r1.077647058823525 A
r1.102117647058825 H
r1.028705882352938 O
r1.00423529411765 V
b110100 7
1'
1(
#60000000
0'
0(
#60500000
r1.000470588235297 V
r1.025411764705879 O
r1.100235294117648 H
r1.075294117647055 A
b110101 7
1'
1(
#61000000
0'
0(
#61500000
r1.072941176470584 A
r1.098352941176472 H
r1.02211764705882 O
r0.9967058823529438 V
b110110 7
1'
1(
#62000000
0'
0(
#62500000
r0.9929411764705909 V
r1.018823529411761 O
r1.096470588235295 H
r1.070588235294113 A
b110111 7
1'
1(
#63000000
0'
0(
#63500000
r1.068235294117643 A
r1.094588235294119 H
r1.015529411764702 O
r0.989176470588238 V
b111000 7
1'
1(
#64000000
0'
0(
#64500000
r0.9854117647058851 V
r1.012235294117643 O
r1.092705882352943 H
r1.065882352941172 A
b111001 7
1'
1(
#65000000
0'
0(
#65500000
r1.063529411764701 A
r1.090823529411766 H
r1.008941176470584 O
r0.9816470588235322 V
b111010 7
1'
1(
#66000000
0'
0(
#66500000
r0.9778823529411793 V
r1.005647058823525 O
r1.08894117647059 H
r1.061176470588231 A
b111011 7
1'
1(
#67000000
0'
0(
#67500000
r1.05882352941176 A
r1.087058823529413 H
r1.002352941176466 O
r0.9741176470588264 V
b111100 7
1'
1(
#68000000
0'
0(
#68500000
r0.9703529411764735 V
r0.9990588235294077 O
r1.085176470588237 H
r1.056470588235289 A
b111101 7
1'
1(
#69000000
0'
0(
#69500000
r1.054117647058818 A
r1.08329411764706 H
r0.9957647058823489 O
r0.9665882352941206 V
b111110 7
1'
1(
#70000000
0'
0(
#70500000
r0.9628235294117677 V
r0.9924705882352901 O
r1.081411764705884 H
r1.051764705882348 A
b111111 7
1'
1(
#71000000
0'
0(
#71500000
r1.049411764705877 A
r1.079529411764707 H
r0.9891764705882313 O
r0.9590588235294149 V
b1000000 7
1'
1(
#72000000
0'
0(
#72500000
r0.955294117647062 V
r0.9858823529411725 O
r1.077647058823531 H
r1.047058823529406 A
b1000001 7
1'
1(
#73000000
0'
0(
#73500000
r1.044705882352936 A
r1.075764705882355 H
r0.9825882352941138 O
r0.9515294117647091 V
b1000010 7
1'
1(
#74000000
0'
0(
#74500000
r0.9477647058823562 V
r0.979294117647055 O
r1.073882352941178 H
r1.042352941176465 A
b1000011 7
1'
1(
#75000000
0'
0(
#75500000
r1.039999999999994 A
r1.072000000000002 H
r0.9759999999999962 O
r0.9440000000000033 V
b1000100 7
1'
1(
#76000000
0'
0(
#76500000
r0.9402352941176504 V
r0.9727058823529374 O
r1.070117647058825 H
r1.037647058823524 A
b1000101 7
1'
1(
#77000000
0'
0(
#77500000
r1.035294117647053 A
r1.068235294117649 H
r0.9694117647058786 O
r0.9364705882352975 V
b1000110 7
1'
1(
#78000000
0'
0(
#78500000
r0.9327058823529446 V
r0.9661176470588199 O
r1.066352941176472 H
r1.032941176470582 A
b1000111 7
1'
1(
#79000000
0'
0(
#79500000
r1.030588235294112 A
r1.064470588235296 H
r0.9628235294117611 O
r0.9289411764705917 V
b1001000 7
1'
1(
#80000000
0'
0(
#80500000
r0.9251764705882388 V
r0.9595294117647023 O
r1.062588235294119 H
r1.028235294117641 A
b1001001 7
1'
1(
#81000000
0'
0(
#81500000
r1.02588235294117 A
r1.060705882352943 H
r0.9562352941176435 O
r0.9214117647058859 V
b1001010 7
1'
1(
#82000000
0'
0(
#82500000
r0.917647058823533 V
r0.9529411764705847 O
r1.058823529411766 H
r1.0235294117647 A
b1001011 7
1'
1(
#83000000
0'
0(
#83500000
r1.021176470588229 A
r1.05694117647059 H
r0.949647058823526 O
r0.9138823529411801 V
b1001100 7
1'
1(
#84000000
0'
0(
#84500000
r0.9101176470588273 V
r0.9463529411764672 O
r1.055058823529414 H
r1.018823529411758 A
b1001101 7
1'
1(
#85000000
0'
0(
#85500000
r1.016470588235288 A
r1.053176470588237 H
r0.9430588235294084 O
r0.9063529411764744 V
b1001110 7
1'
1(
#86000000
0'
0(
#86500000
r0.9025882352941215 V
r0.9397647058823496 O
r1.051294117647061 H
r1.014117647058817 A
b1001111 7
1'
1(
#87000000
0'
0(
#87500000
r1.011764705882346 A
r1.049411764705884 H
r0.9364705882352908 O
r0.8988235294117686 V
b1010000 7
1'
1(
#88000000
0'
0(
#88500000
r0.8950588235294157 V
r0.9331764705882321 O
r1.047529411764708 H
r1.009411764705876 A
b1010001 7
1'
1(
#89000000
0'
0(
#89500000
r1.007058823529405 A
r1.045647058823531 H
r0.9298823529411733 O
r0.8912941176470628 V
b1010010 7
1'
1(
#90000000
0'
0(
#90500000
r0.8875294117647099 V
r0.9265882352941145 O
r1.043764705882355 H
r1.004705882352934 A
b1010011 7
1'
1(
#91000000
0'
0(
#91500000
r1.002352941176464 A
r1.041882352941178 H
r0.9232941176470557 O
r0.883764705882357 V
b1010100 7
1'
1(
#92000000
0'
0(
#92500000
r0.8800000000000041 V
r0.9199999999999969 O
r1.040000000000002 H
r0.9999999999999932 A
b1010101 7
1'
1(
#93000000
0'
0(
#93500000
r0.9976470588235227 A
r1.038117647058826 H
r0.9167058823529382 O
r0.8762352941176512 V
b1010110 7
1'
1(
#94000000
0'
0(
#94500000
r0.8724705882352983 V
r0.9134117647058794 O
r1.036235294117649 H
r0.9952941176470521 A
b1010111 7
1'
1(
#95000000
0'
0(
#95500000
r0.9929411764705816 A
r1.034352941176473 H
r0.9101176470588206 O
r0.8687058823529454 V
b1011000 7
1'
1(
#96000000
0'
0(
#96500000
r0.8649411764705925 V
r0.9068235294117618 O
r1.032470588235296 H
r0.990588235294111 A
b1011001 7
1'
1(
#97000000
0'
0(
#97500000
r0.9882352941176404 A
r1.03058823529412 H
r0.903529411764703 O
r0.8611764705882397 V
b1011010 7
1'
1(
#98000000
0'
0(
#98500000
r0.8574117647058868 V
r0.9002352941176442 O
r1.028705882352943 H
r0.9858823529411699 A
b1011011 7
1'
1(
#99000000
0'
0(
#99500000
r0.9835294117646993 A
r1.026823529411767 H
r0.8969411764705855 O
r0.8536470588235339 V
b1011100 7
1'
1(
#100000000
0'
0(
#100500000
r0.849882352941181 V
r0.8936470588235267 O
r1.02494117647059 H
r0.9811764705882288 A
b1011101 7
1'
1(
#101000000
0'
0(
#101500000
r0.9788235294117582 A
r1.023058823529414 H
r0.8903529411764679 O
r0.8461176470588281 V
b1011110 7
1'
1(
#102000000
0'
0(
#102500000
r0.8423529411764752 V
r0.8870588235294091 O
r1.021176470588238 H
r0.9764705882352877 A
b1011111 7
1'
1(
#103000000
0'
0(
#103500000
r0.9741176470588171 A
r1.019294117647061 H
r0.8837647058823503 O
r0.8385882352941223 V
b1100000 7
1'
1(
#104000000
0'
0(
#104500000
r0.8348235294117694 V
r0.8804705882352916 O
r1.017411764705885 H
r0.9717647058823465 A
b1100001 7
1'
1(
#105000000
0'
0(
#105500000
r0.969411764705876 A
r1.015529411764708 H
r0.8771764705882328 O
r0.8310588235294165 V
b1100010 7
1'
1(
#106000000
0'
0(
#106500000
r0.8272941176470636 V
r0.873882352941174 O
r1.013647058823532 H
r0.9670588235294054 A
b1100011 7
1'
1(
#107000000
0'
0(
#107500000
r0.9647058823529349 A
r1.011764705882355 H
r0.8705882352941152 O
r0.8235294117647107 V
b1100100 7
1'
1(
#108000000
0'
0(
#108500000
r0.8197647058823578 V
r0.8672941176470564 O
r1.009882352941179 H
r0.9623529411764643 A
b1100101 7
1'
1(
#109000000
0'
0(
#109500000
r0.9599999999999937 A
r1.008000000000002 H
r0.8639999999999977 O
r0.8160000000000049 V
b1100110 7
1'
1(
#110000000
0'
0(
#110500000
r0.8122352941176521 V
r0.8607058823529389 O
r1.006117647058826 H
r0.9576470588235232 A
b1100111 7
1'
1(
#111000000
0'
0(
#111500000
r0.9552941176470526 A
r1.00423529411765 H
r0.8574117647058801 O
r0.8084705882352992 V
b1101000 7
1'
1(
#112000000
0'
0(
#112500000
r0.8047058823529463 V
r0.8541176470588213 O
r1.002352941176473 H
r0.9529411764705821 A
b1101001 7
1'
1(
#113000000
0'
0(
#113500000
r0.9505882352941115 A
r1.000470588235297 H
r0.8508235294117625 O
r0.8009411764705934 V
b1101010 7
1'
1(
#114000000
0'
0(
#114500000
r0.7971764705882405 V
r0.8475294117647038 O
r0.9985882352941202 H
r0.948235294117641 A
b1101011 7
1'
1(
#115000000
0'
0(
#115500000
r0.9458823529411704 A
r0.9967058823529438 H
r0.844235294117645 O
r0.7934117647058876 V
b1101100 7
1'
1(
#116000000
0'
0(
#116500000
r0.7896470588235347 V
r0.8409411764705862 O
r0.9948235294117673 H
r0.9435294117646998 A
b1101101 7
1'
1(
#117000000
0'
0(
#117500000
r0.9411764705882293 A
r0.9929411764705909 H
r0.8376470588235274 O
r0.7858823529411818 V
b1101110 7
1'
1(
#118000000
0'
0(
#118500000
r0.7821176470588289 V
r0.8343529411764686 O
r0.9910588235294144 H
r0.9388235294117587 A
b1101111 7
1'
1(
#119000000
0'
0(
#119500000
r0.9364705882352882 A
r0.989176470588238 H
r0.8310588235294099 O
r0.778352941176476 V
b1110000 7
1'
1(
#120000000
0'
0(
#120500000
r0.7745882352941231 V
r0.8277647058823511 O
r0.9872941176470615 H
r0.9341176470588176 A
b1110001 7
1'
1(
#121000000
0'
0(
#121500000
r0.9317647058823471 A
r0.9854117647058851 H
r0.8244705882352923 O
r0.7708235294117702 V
b1110010 7
1'
1(
#122000000
0'
0(
#122500000
r0.7670588235294173 V
r0.8211764705882335 O
r0.9835294117647086 H
r0.9294117647058765 A
b1110011 7
1'
1(
#123000000
0'
0(
#123500000
r0.9270588235294059 A
r0.9816470588235322 H
r0.8178823529411747 O
r0.7632941176470645 V
b1110100 7
1'
1(
#124000000
0'
0(
#124500000
r0.7595294117647116 V
r0.8145882352941159 O
r0.9797647058823558 H
r0.9247058823529354 A
b1110101 7
1'
1(
#125000000
0'
0(
#125500000
r0.9223529411764648 A
r0.9778823529411793 H
r0.8112941176470572 O
r0.7557647058823587 V
b1110110 7
1'
1(
#126000000
0'
0(
#126500000
r0.7520000000000058 V
r0.8079999999999984 O
r0.9760000000000029 H
r0.9199999999999943 A
b1110111 7
1'
1(
#127000000
0'
0(
#127500000
r0.9176470588235237 A
r0.9741176470588264 H
r0.8047058823529396 O
r0.7482352941176529 V
b1111000 7
1'
1(
#128000000
0'
0(
#128500000
r0.7444705882353 V
r0.8014117647058808 O
r0.97223529411765 H
r0.9152941176470532 A
b1111001 7
1'
1(
#129000000
0'
0(
#129500000
r0.9129411764705826 A
r0.9703529411764735 H
r0.798117647058822 O
r0.7407058823529471 V
b1111010 7
1'
1(
#130000000
0'
0(
#130500000
r0.7369411764705942 V
r0.7948235294117633 O
r0.9684705882352971 H
r0.910588235294112 A
b1111011 7
1'
1(
#131000000
0'
0(
#131500000
r0.9082352941176415 A
r0.9665882352941206 H
r0.7915294117647045 O
r0.7331764705882413 V
b1111100 7
1'
1(
#132000000
0'
0(
#132500000
r0.7294117647058884 V
r0.7882352941176457 O
r0.9647058823529442 H
r0.9058823529411709 A
b1111101 7
1'
1(
#133000000
0'
0(
#133500000
r0.9035294117647004 A
r0.9628235294117677 H
r0.7849411764705869 O
r0.7256470588235355 V
b1111110 7
1'
1(
#134000000
0'
0(
#134500000
r0.7218823529411826 V
r0.7816470588235281 O
r0.9609411764705913 H
r0.9011764705882298 A
b1111111 7
1'
1(
#135000000
0'
0(
#135500000
r0.8988235294117592 A
r0.9590588235294149 H
r0.7783529411764694 O
r0.7181176470588297 V
b10000000 7
1'
1(
#136000000
0'
0(
#136500000
r0.7143529411764769 V
r0.7750588235294106 O
r0.9571764705882384 H
r0.8964705882352887 A
b10000001 7
1'
1(
#137000000
0'
0(
#137500000
r0.8941176470588181 A
r0.955294117647062 H
r0.7717647058823518 O
r0.710588235294124 V
b10000010 7
1'
1(
#138000000
0'
0(
#138500000
r0.7068235294117711 V
r0.768470588235293 O
r0.9534117647058855 H
r0.8917647058823476 A
b10000011 7
1'
1(
#139000000
0'
0(
#139500000
r0.889411764705877 A
r0.9515294117647091 H
r0.7651764705882342 O
r0.7030588235294182 V
b10000100 7
1'
1(
#140000000
0'
0(
#140500000
r0.6992941176470653 V
r0.7618823529411755 O
r0.9496470588235326 H
r0.8870588235294065 A
b10000101 7
1'
1(
#141000000
0'
0(
#141500000
r0.8847058823529359 A
r0.9477647058823562 H
r0.7585882352941167 O
r0.6955294117647124 V
b10000110 7
1'
1(
#142000000
0'
0(
#142500000
r0.6917647058823595 V
r0.7552941176470579 O
r0.9458823529411797 H
r0.8823529411764653 A
b10000111 7
1'
1(
#143000000
0'
0(
#143500000
r0.8799999999999948 A
r0.9440000000000033 H
r0.7519999999999991 O
r0.6880000000000066 V
b10001000 7
1'
1(
#144000000
0'
0(
#144500000
r0.6842352941176537 V
r0.7487058823529403 O
r0.9421176470588268 H
r0.8776470588235242 A
b10001001 7
1'
1(
#145000000
0'
0(
#145500000
r0.8752941176470537 A
r0.9402352941176504 H
r0.7454117647058816 O
r0.6804705882353008 V
b10001010 7
1'
1(
#146000000
0'
0(
#146500000
r0.6767058823529479 V
r0.7421176470588228 O
r0.9383529411764739 H
r0.8729411764705831 A
b10001011 7
1'
1(
#147000000
0'
0(
#147500000
r0.8705882352941126 A
r0.9364705882352975 H
r0.738823529411764 O
r0.672941176470595 V
b10001100 7
1'
1(
#148000000
0'
0(
#148500000
r0.6691764705882421 V
r0.7355294117647052 O
r0.9345882352941211 H
r0.868235294117642 A
b10001101 7
1'
1(
#149000000
0'
0(
#149500000
r0.8658823529411714 A
r0.9327058823529446 H
r0.7322352941176464 O
r0.6654117647058893 V
b10001110 7
1'
1(
#150000000
0'
0(
#150500000
r0.6616470588235364 V
r0.7289411764705876 O
r0.9308235294117682 H
r0.8635294117647009 A
b10001111 7
1'
1(
#151000000
0'
0(
#151500000
r0.8611764705882303 A
r0.9289411764705917 H
r0.7256470588235289 O
r0.6578823529411835 V
b10010000 7
1'
1(
#152000000
0'
0(
#152500000
r0.6541176470588306 V
r0.7223529411764701 O
r0.9270588235294153 H
r0.8588235294117598 A
b10010001 7
1'
1(
#153000000
0'
0(
#153500000
r0.8564705882352892 A
r0.9251764705882388 H
r0.7190588235294113 O
r0.6503529411764777 V
b10010010 7
1'
1(
#154000000
0'
0(
#154500000
r0.6465882352941248 V
r0.7157647058823525 O
r0.9232941176470624 H
r0.8541176470588187 A
b10010011 7
1'
1(
#155000000
0'
0(
#155500000
r0.8517647058823481 A
r0.9214117647058859 H
r0.7124705882352937 O
r0.6428235294117719 V
b10010100 7
1'
1(
#156000000
0'
0(
#156500000
r0.639058823529419 V
r0.709176470588235 O
r0.9195294117647095 H
r0.8494117647058775 A
b10010101 7
1'
1(
#157000000
0'
0(
#157500000
r0.847058823529407 A
r0.917647058823533 H
r0.7058823529411762 O
r0.6352941176470661 V
b10010110 7
1'
1(
#158000000
0'
0(
#158500000
r0.6315294117647132 V
r0.7025882352941174 O
r0.9157647058823566 H
r0.8447058823529364 A
b10010111 7
1'
1(
#159000000
0'
0(
#159500000
r0.8423529411764659 A
r0.9138823529411801 H
r0.6992941176470586 O
r0.6277647058823603 V
b10011000 7
1'
1(
#160000000
0'
0(
#160500000
r0.6240000000000074 V
r0.6959999999999998 O
r0.9120000000000037 H
r0.8399999999999953 A
b10011001 7
1'
1(
#161000000
0'
0(
#161500000
r0.8376470588235247 A
r0.9101176470588273 H
r0.6927058823529411 O
r0.6202352941176545 V
b10011010 7
1'
1(
#162000000
0'
0(
#162500000
r0.6164705882353017 V
r0.6894117647058823 O
r0.9082352941176508 H
r0.8352941176470542 A
b10011011 7
1'
1(
#163000000
0'
0(
#163500000
r0.8329411764705836 A
r0.9063529411764744 H
r0.6861176470588235 O
r0.6127058823529488 V
b10011100 7
1'
1(
#164000000
0'
0(
#164500000
r0.6089411764705959 V
r0.6828235294117647 O
r0.9044705882352979 H
r0.8305882352941131 A
b10011101 7
1'
1(
#165000000
0'
0(
#165500000
r0.8282352941176425 A
r0.9025882352941215 H
r0.6795294117647059 O
r0.605176470588243 V
b10011110 7
1'
1(
#166000000
0'
0(
#166500000
r0.6014117647058901 V
r0.6762352941176472 O
r0.900705882352945 H
r0.825882352941172 A
b10011111 7
1'
1(
#167000000
0'
0(
#167500000
r0.8235294117647014 A
r0.8988235294117686 H
r0.6729411764705884 O
r0.5976470588235372 V
b10100000 7
1'
1(
#168000000
0'
0(
#168500000
r0.5938823529411843 V
r0.6696470588235296 O
r0.8969411764705921 H
r0.8211764705882308 A
b10100001 7
1'
1(
#169000000
0'
0(
#169500000
r0.8188235294117603 A
r0.8950588235294157 H
r0.6663529411764708 O
r0.5901176470588314 V
b10100010 7
1'
1(
#170000000
0'
0(
#170500000
r0.5863529411764785 V
r0.663058823529412 O
r0.8931764705882392 H
r0.8164705882352897 A
b10100011 7
1'
1(
#171000000
0'
0(
#171500000
r0.8141176470588192 A
r0.8912941176470628 H
r0.6597647058823533 O
r0.5825882352941256 V
b10100100 7
1'
1(
#172000000
0'
0(
#172500000
r0.5788235294117727 V
r0.6564705882352945 O
r0.8894117647058863 H
r0.8117647058823486 A
b10100101 7
1'
1(
#173000000
0'
0(
#173500000
r0.8094117647058781 A
r0.8875294117647099 H
r0.6531764705882357 O
r0.5750588235294198 V
b10100110 7
1'
1(
#174000000
0'
0(
#174500000
r0.5712941176470669 V
r0.6498823529411769 O
r0.8856470588235335 H
r0.8070588235294075 A
b10100111 7
1'
1(
#175000000
0'
0(
#175500000
r0.8047058823529369 A
r0.883764705882357 H
r0.6465882352941181 O
r0.5675294117647141 V
b10101000 7
1'
1(
#176000000
0'
0(
#176500000
r0.5637647058823612 V
r0.6432941176470593 O
r0.8818823529411806 H
r0.8023529411764664 A
b10101001 7
1'
1(
#177000000
0'
0(
#177500000
r0.7999999999999958 A
r0.8800000000000041 H
r0.6400000000000006 O
r0.5600000000000083 V
b10101010 7
1'
1(
#178000000
0'
0(
#178500000
r0.5562352941176554 V
r0.6367058823529418 O
r0.8781176470588277 H
r0.7976470588235253 A
b10101011 7
1'
1(
#179000000
0'
0(
