Verilog/pixelTop_tb.vcd
$date
	Wed Nov 17 08:50:29 2021
$end
$version
	Icarus Verilog
$end
$timescale
	1ps
$end
$scope module pixelTop_tb $end
$var wire 8 ! pixData1 [7:0] $end
$var wire 8 " pixData2 [7:0] $end
$var wire 8 # pixData3 [7:0] $end
$var wire 8 $ pixData4 [7:0] $end
$var reg 1 % clk $end
$var reg 1 & reset $end
$scope module T1 $end
$var wire 1 % clk $end
$var wire 8 ' pixData1 [7:0] $end
$var wire 8 ( pixData2 [7:0] $end
$var wire 8 ) pixData3 [7:0] $end
$var wire 8 * pixData4 [7:0] $end
$var wire 1 & reset $end
$var wire 1 + read2 $end
$var wire 1 , read1 $end
$var wire 1 - expose $end
$var wire 1 . erase $end
$var wire 1 / convert $end
$var wire 1 0 anaRamp $end
$var wire 1 1 anaBias1 $end
$var reg 1 2 anaReset $end
$var reg 8 3 data1 [7:0] $end
$var reg 8 4 data2 [7:0] $end
$var reg 8 5 data3 [7:0] $end
$var reg 8 6 data4 [7:0] $end
$var reg 8 7 pixelDataOut1 [7:0] $end
$var reg 8 8 pixelDataOut2 [7:0] $end
$scope module PA $end
$var wire 1 0 RAMP $end
$var wire 1 2 RESET $end
$var wire 1 1 VBN1 $end
$var wire 8 9 pixData1 [7:0] $end
$var wire 8 : pixData2 [7:0] $end
$var wire 8 ; pixData3 [7:0] $end
$var wire 8 < pixData4 [7:0] $end
$var wire 1 + READ2 $end
$var wire 1 , READ1 $end
$var wire 1 - EXPOSE $end
$var wire 1 . ERASE $end
$scope module ps1 $end
$var wire 8 = DATA [7:0] $end
$var wire 1 0 RAMP $end
$var wire 1 2 RESET $end
$var wire 1 1 VBN1 $end
$var wire 1 , READ $end
$var wire 1 - EXPOSE $end
$var wire 1 . ERASE $end
$var reg 1 > cmp $end
$var reg 8 ? p_data [7:0] $end
$var real 1 @ adc $end
$var real 1 A lsb $end
$var real 1 B tmp $end
$var real 1 C v_erase $end
$upscope $end
$scope module ps2 $end
$var wire 8 D DATA [7:0] $end
$var wire 1 0 RAMP $end
$var wire 1 2 RESET $end
$var wire 1 1 VBN1 $end
$var wire 1 , READ $end
$var wire 1 - EXPOSE $end
$var wire 1 . ERASE $end
$var reg 1 E cmp $end
$var reg 8 F p_data [7:0] $end
$var real 1 G adc $end
$var real 1 H lsb $end
$var real 1 I tmp $end
$var real 1 J v_erase $end
$upscope $end
$scope module ps3 $end
$var wire 8 K DATA [7:0] $end
$var wire 1 0 RAMP $end
$var wire 1 2 RESET $end
$var wire 1 1 VBN1 $end
$var wire 1 + READ $end
$var wire 1 - EXPOSE $end
$var wire 1 . ERASE $end
$var reg 1 L cmp $end
$var reg 8 M p_data [7:0] $end
$var real 1 N adc $end
$var real 1 O lsb $end
$var real 1 P tmp $end
$var real 1 Q v_erase $end
$upscope $end
$scope module ps4 $end
$var wire 8 R DATA [7:0] $end
$var wire 1 0 RAMP $end
$var wire 1 2 RESET $end
$var wire 1 1 VBN1 $end
$var wire 1 + READ $end
$var wire 1 - EXPOSE $end
$var wire 1 . ERASE $end
$var reg 1 S cmp $end
$var reg 8 T p_data [7:0] $end
$var real 1 U adc $end
$var real 1 V lsb $end
$var real 1 W tmp $end
$var real 1 X v_erase $end
$upscope $end
$upscope $end
$scope module PS $end
$var wire 1 % clk $end
$var wire 1 & reset $end
$var reg 1 / convert $end
$var reg 1 . erase $end
$var reg 1 - expose $end
$var reg 3 Y next_state [2:0] $end
$var reg 1 , read1 $end
$var reg 1 + read2 $end
$var reg 3 Z state [2:0] $end
$var integer 32 [ counter [31:0] $end
$upscope $end
$upscope $end
$upscope $end
$enddefinitions $end
#500000
$dumpvars
b0 [
b0 Z
b0 Y
r1.2 X
r0 W
r0.004705882352941176 V
r0 U
bx T
xS
bx R
r1.2 Q
r0 P
r0.004705882352941176 O
r0 N
bx M
xL
bx K
r1.2 J
r0 I
r0.004705882352941176 H
r0 G
bx F
xE
bx D
r1.2 C
r0 B
r0.004705882352941176 A
r0 @
bx ?
x>
bx =
bx <
bx ;
bx :
bx 9
b0 8
b0 7
b0 6
b0 5
b0 4
b0 3
x2
x1
00
0/
x.
x-
x,
x+
bx *
bx )
bx (
bx '
0&
1%
bx $
bx #
bx "
bx !
$end
#1000000
b0 $
b0 *
b0 <
b0 R
b0 #
b0 )
b0 ;
b0 K
b0 "
b0 (
b0 :
b0 D
b0 !
b0 '
b0 9
b0 =
0S
b0 T
r1.2 W
0L
b0 M
r1.2 P
0E
b0 F
r1.2 I
0>
b0 ?
r1.2 B
0-
0+
0,
1.
01
0%
#1500000
b1 [
1%
#2000000
0%
#2500000
b10 [
1%
#3000000
0%
#3500000
b11 [
1%
#4000000
0%
#4500000
b100 [
1%
#5000000
0%
#5500000
b101 [
1%
#6000000
0%
#6500000
b101 Z
b1 Y
b110 [
1%
#7000000
0.
0%
#7500000
b1 Z
b0 [
1%
#8000000
1-
0%
#8500000
r1.196235294117647 W
r1.196705882352941 P
r1.198117647058824 I
r1.197647058823529 B
11
b1 [
1%
#9000000
01
0%
#9500000
r1.195294117647059 B
r1.196235294117647 I
r1.193411764705882 P
r1.192470588235294 W
11
b10 [
1%
#10000000
01
0%
#10500000
r1.188705882352941 W
r1.190117647058823 P
r1.194352941176471 I
r1.192941176470588 B
11
b11 [
1%
#11000000
01
0%
#11500000
r1.190588235294117 B
r1.192470588235294 I
r1.186823529411764 P
r1.184941176470588 W
11
b100 [
1%
#12000000
01
0%
#12500000
r1.181176470588235 W
r1.183529411764705 P
r1.190588235294118 I
r1.188235294117647 B
11
b101 [
1%
#13000000
01
0%
#13500000
r1.185882352941176 B
r1.188705882352941 I
r1.180235294117647 P
r1.177411764705883 W
11
b110 [
1%
#14000000
01
0%
#14500000
r1.17364705882353 W
r1.176941176470588 P
r1.186823529411765 I
r1.183529411764705 B
11
b111 [
1%
#15000000
01
0%
#15500000
r1.181176470588235 B
r1.184941176470588 I
r1.173647058823529 P
r1.169882352941177 W
11
b1000 [
1%
#16000000
01
0%
#16500000
r1.166117647058824 W
r1.17035294117647 P
r1.183058823529412 I
r1.178823529411764 B
11
b1001 [
1%
#17000000
01
0%
#17500000
r1.176470588235293 B
r1.181176470588235 I
r1.167058823529411 P
r1.162352941176471 W
11
b1010 [
1%
#18000000
01
0%
#18500000
r1.158588235294118 W
r1.163764705882352 P
r1.179294117647059 I
r1.174117647058823 B
11
b1011 [
1%
#19000000
01
0%
#19500000
r1.171764705882352 B
r1.177411764705883 I
r1.160470588235293 P
r1.154823529411765 W
11
b1100 [
1%
#20000000
01
0%
#20500000
r1.151058823529412 W
r1.157176470588234 P
r1.175529411764706 I
r1.169411764705881 B
11
b1101 [
1%
#21000000
01
0%
#21500000
r1.167058823529411 B
r1.17364705882353 I
r1.153882352941175 P
r1.147294117647059 W
11
b1110 [
1%
#22000000
01
0%
#22500000
r1.143529411764707 W
r1.150588235294117 P
r1.171764705882353 I
r1.16470588235294 B
11
b1111 [
1%
#23000000
01
0%
#23500000
r1.162352941176469 B
r1.169882352941177 I
r1.147294117647058 P
r1.139764705882354 W
11
b10000 [
1%
#24000000
01
0%
#24500000
r1.136000000000001 W
r1.143999999999999 P
r1.168 I
r1.159999999999999 B
11
b10001 [
1%
#25000000
01
0%
#25500000
r1.157647058823528 B
r1.166117647058824 I
r1.14070588235294 P
r1.132235294117648 W
11
b10010 [
1%
#26000000
01
0%
#26500000
r1.128470588235295 W
r1.137411764705881 P
r1.164235294117647 I
r1.155294117647057 B
11
b10011 [
1%
#27000000
01
0%
#27500000
r1.152941176470587 B
r1.162352941176471 I
r1.134117647058822 P
r1.124705882352942 W
11
b10100 [
1%
#28000000
01
0%
#28500000
r1.120941176470589 W
r1.130823529411763 P
r1.160470588235295 I
r1.150588235294116 B
11
b10101 [
1%
#29000000
01
0%
#29500000
r1.148235294117645 B
r1.158588235294118 I
r1.127529411764704 P
r1.117176470588236 W
11
b10110 [
1%
#30000000
01
0%
#30500000
r1.113411764705883 W
r1.124235294117645 P
r1.156705882352942 I
r1.145882352941175 B
11
b10111 [
1%
#31000000
01
0%
#31500000
r1.143529411764704 B
r1.154823529411765 I
r1.120941176470587 P
r1.109647058823531 W
11
b11000 [
1%
#32000000
01
0%
#32500000
r1.105882352941178 W
r1.117647058823528 P
r1.152941176470589 I
r1.141176470588233 B
11
b11001 [
1%
#33000000
01
0%
#33500000
r1.138823529411763 B
r1.151058823529412 I
r1.114352941176469 P
r1.102117647058825 W
11
b11010 [
1%
#34000000
01
0%
#34500000
r1.098352941176472 W
r1.11105882352941 P
r1.149176470588236 I
r1.136470588235292 B
11
b11011 [
1%
#35000000
01
0%
#35500000
r1.134117647058821 B
r1.147294117647059 I
r1.107764705882351 P
r1.094588235294119 W
11
b11100 [
1%
#36000000
01
0%
#36500000
r1.090823529411766 W
r1.104470588235292 P
r1.145411764705883 I
r1.131764705882351 B
11
b11101 [
1%
#37000000
01
0%
#37500000
r1.12941176470588 B
r1.143529411764707 I
r1.101176470588233 P
r1.087058823529413 W
11
b11110 [
1%
#38000000
01
0%
#38500000
r1.08329411764706 W
r1.097882352941174 P
r1.14164705882353 I
r1.127058823529409 B
11
b11111 [
1%
#39000000
01
0%
#39500000
r1.124705882352939 B
r1.139764705882354 I
r1.094588235294115 P
r1.079529411764707 W
11
b100000 [
1%
#40000000
01
0%
#40500000
r1.075764705882355 W
r1.091294117647057 P
r1.137882352941177 I
r1.122352941176468 B
11
b100001 [
1%
#41000000
01
0%
#41500000
r1.119999999999997 B
r1.136000000000001 I
r1.087999999999998 P
r1.072000000000002 W
11
b100010 [
1%
#42000000
01
0%
#42500000
r1.068235294117649 W
r1.084705882352939 P
r1.134117647058824 I
r1.117647058823527 B
11
b100011 [
1%
#43000000
01
0%
#43500000
r1.115294117647056 B
r1.132235294117648 I
r1.08141176470588 P
r1.064470588235296 W
11
b100100 [
1%
#44000000
01
0%
#44500000
r1.060705882352943 W
r1.078117647058821 P
r1.130352941176471 I
r1.112941176470585 B
11
b100101 [
1%
#45000000
01
0%
#45500000
r1.110588235294115 B
r1.128470588235295 I
r1.074823529411762 P
r1.05694117647059 W
11
b100110 [
1%
#46000000
01
0%
#46500000
r1.053176470588237 W
r1.071529411764703 P
r1.126588235294119 I
r1.108235294117644 B
11
b100111 [
1%
#47000000
01
0%
#47500000
r1.105882352941173 B
r1.124705882352942 I
r1.068235294117644 P
r1.049411764705884 W
11
b101000 [
1%
#48000000
01
0%
#48500000
r1.045647058823531 W
r1.064941176470585 P
r1.122823529411766 I
r1.103529411764703 B
11
b101001 [
1%
#49000000
01
0%
#49500000
r1.101176470588232 B
r1.120941176470589 I
r1.061647058823527 P
r1.041882352941178 W
11
b101010 [
1%
#50000000
01
0%
#50500000
r1.038117647058826 W
r1.058352941176468 P
r1.119058823529413 I
r1.098823529411761 B
11
b101011 [
1%
#51000000
01
0%
#51500000
r1.096470588235291 B
r1.117176470588236 I
r1.055058823529409 P
r1.034352941176473 W
11
b101100 [
1%
#52000000
01
0%
#52500000
r1.03058823529412 W
r1.05176470588235 P
r1.11529411764706 I
r1.09411764705882 B
11
b101101 [
1%
#53000000
01
0%
#53500000
r1.091764705882349 B
r1.113411764705883 I
r1.048470588235291 P
r1.026823529411767 W
11
b101110 [
1%
#54000000
01
0%
#54500000
r1.023058823529414 W
r1.045176470588232 P
r1.111529411764707 I
r1.089411764705879 B
11
b101111 [
1%
#55000000
01
0%
#55500000
r1.087058823529408 B
r1.109647058823531 I
r1.041882352941173 P
r1.019294117647061 W
11
b110000 [
1%
#56000000
01
0%
#56500000
r1.015529411764708 W
r1.038588235294114 P
r1.107764705882354 I
r1.084705882352937 B
11
b110001 [
1%
#57000000
01
0%
#57500000
r1.082352941176467 B
r1.105882352941178 I
r1.035294117647055 P
r1.011764705882355 W
11
b110010 [
1%
#58000000
01
0%
#58500000
r1.008000000000002 W
r1.031999999999996 P
r1.104000000000001 I
r1.079999999999996 B
11
b110011 [
1%
#59000000
01
0%
#59500000
r1.077647058823525 B
r1.102117647058825 I
r1.028705882352938 P
r1.00423529411765 W
11
b110100 [
1%
#60000000
01
0%
#60500000
r1.000470588235297 W
r1.025411764705879 P
r1.100235294117648 I
r1.075294117647055 B
11
b110101 [
1%
#61000000
01
0%
#61500000
r1.072941176470584 B
r1.098352941176472 I
r1.02211764705882 P
r0.9967058823529438 W
11
b110110 [
1%
#62000000
01
0%
#62500000
r0.9929411764705909 W
r1.018823529411761 P
r1.096470588235295 I
r1.070588235294113 B
11
b110111 [
1%
#63000000
01
0%
#63500000
r1.068235294117643 B
r1.094588235294119 I
r1.015529411764702 P
r0.989176470588238 W
11
b111000 [
1%
#64000000
01
0%
#64500000
r0.9854117647058851 W
r1.012235294117643 P
r1.092705882352943 I
r1.065882352941172 B
11
b111001 [
1%
#65000000
01
0%
#65500000
r1.063529411764701 B
r1.090823529411766 I
r1.008941176470584 P
r0.9816470588235322 W
11
b111010 [
1%
#66000000
01
0%
#66500000
r0.9778823529411793 W
r1.005647058823525 P
r1.08894117647059 I
r1.061176470588231 B
11
b111011 [
1%
#67000000
01
0%
#67500000
r1.05882352941176 B
r1.087058823529413 I
r1.002352941176466 P
r0.9741176470588264 W
11
b111100 [
1%
#68000000
01
0%
#68500000
r0.9703529411764735 W
r0.9990588235294077 P
r1.085176470588237 I
r1.056470588235289 B
11
b111101 [
1%
#69000000
01
0%
#69500000
r1.054117647058818 B
r1.08329411764706 I
r0.9957647058823489 P
r0.9665882352941206 W
11
b111110 [
1%
#70000000
01
0%
#70500000
r0.9628235294117677 W
r0.9924705882352901 P
r1.081411764705884 I
r1.051764705882348 B
11
b111111 [
1%
#71000000
01
0%
#71500000
r1.049411764705877 B
r1.079529411764707 I
r0.9891764705882313 P
r0.9590588235294149 W
11
b1000000 [
1%
#72000000
01
0%
#72500000
r0.955294117647062 W
r0.9858823529411725 P
r1.077647058823531 I
r1.047058823529406 B
11
b1000001 [
1%
#73000000
01
0%
#73500000
r1.044705882352936 B
r1.075764705882355 I
r0.9825882352941138 P
r0.9515294117647091 W
11
b1000010 [
1%
#74000000
01
0%
#74500000
r0.9477647058823562 W
r0.979294117647055 P
r1.073882352941178 I
r1.042352941176465 B
11
b1000011 [
1%
#75000000
01
0%
#75500000
r1.039999999999994 B
r1.072000000000002 I
r0.9759999999999962 P
r0.9440000000000033 W
11
b1000100 [
1%
#76000000
01
0%
#76500000
r0.9402352941176504 W
r0.9727058823529374 P
r1.070117647058825 I
r1.037647058823524 B
11
b1000101 [
1%
#77000000
01
0%
#77500000
r1.035294117647053 B
r1.068235294117649 I
r0.9694117647058786 P
r0.9364705882352975 W
11
b1000110 [
1%
#78000000
01
0%
#78500000
r0.9327058823529446 W
r0.9661176470588199 P
r1.066352941176472 I
r1.032941176470582 B
11
b1000111 [
1%
#79000000
01
0%
#79500000
r1.030588235294112 B
r1.064470588235296 I
r0.9628235294117611 P
r0.9289411764705917 W
11
b1001000 [
1%
#80000000
01
0%
#80500000
r0.9251764705882388 W
r0.9595294117647023 P
r1.062588235294119 I
r1.028235294117641 B
11
b1001001 [
1%
#81000000
01
0%
#81500000
r1.02588235294117 B
r1.060705882352943 I
r0.9562352941176435 P
r0.9214117647058859 W
11
b1001010 [
1%
#82000000
01
0%
#82500000
r0.917647058823533 W
r0.9529411764705847 P
r1.058823529411766 I
r1.0235294117647 B
11
b1001011 [
1%
#83000000
01
0%
#83500000
r1.021176470588229 B
r1.05694117647059 I
r0.949647058823526 P
r0.9138823529411801 W
11
b1001100 [
1%
#84000000
01
0%
#84500000
r0.9101176470588273 W
r0.9463529411764672 P
r1.055058823529414 I
r1.018823529411758 B
11
b1001101 [
1%
#85000000
01
0%
#85500000
r1.016470588235288 B
r1.053176470588237 I
r0.9430588235294084 P
r0.9063529411764744 W
11
b1001110 [
1%
#86000000
01
0%
#86500000
r0.9025882352941215 W
r0.9397647058823496 P
r1.051294117647061 I
r1.014117647058817 B
11
b1001111 [
1%
#87000000
01
0%
#87500000
r1.011764705882346 B
r1.049411764705884 I
r0.9364705882352908 P
r0.8988235294117686 W
11
b1010000 [
1%
#88000000
01
0%
#88500000
r0.8950588235294157 W
r0.9331764705882321 P
r1.047529411764708 I
r1.009411764705876 B
11
b1010001 [
1%
#89000000
01
0%
#89500000
r1.007058823529405 B
r1.045647058823531 I
r0.9298823529411733 P
r0.8912941176470628 W
11
b1010010 [
1%
#90000000
01
0%
#90500000
r0.8875294117647099 W
r0.9265882352941145 P
r1.043764705882355 I
r1.004705882352934 B
11
b1010011 [
1%
#91000000
01
0%
#91500000
r1.002352941176464 B
r1.041882352941178 I
r0.9232941176470557 P
r0.883764705882357 W
11
b1010100 [
1%
#92000000
01
0%
#92500000
r0.8800000000000041 W
r0.9199999999999969 P
r1.040000000000002 I
r0.9999999999999932 B
11
b1010101 [
1%
#93000000
01
0%
#93500000
r0.9976470588235227 B
r1.038117647058826 I
r0.9167058823529382 P
r0.8762352941176512 W
11
b1010110 [
1%
#94000000
01
0%
#94500000
r0.8724705882352983 W
r0.9134117647058794 P
r1.036235294117649 I
r0.9952941176470521 B
11
b1010111 [
1%
#95000000
01
0%
#95500000
r0.9929411764705816 B
r1.034352941176473 I
r0.9101176470588206 P
r0.8687058823529454 W
11
b1011000 [
1%
#96000000
01
0%
#96500000
r0.8649411764705925 W
r0.9068235294117618 P
r1.032470588235296 I
r0.990588235294111 B
11
b1011001 [
1%
#97000000
01
0%
#97500000
r0.9882352941176404 B
r1.03058823529412 I
r0.903529411764703 P
r0.8611764705882397 W
11
b1011010 [
1%
#98000000
01
0%
#98500000
r0.8574117647058868 W
r0.9002352941176442 P
r1.028705882352943 I
r0.9858823529411699 B
11
b1011011 [
1%
#99000000
01
0%
#99500000
r0.9835294117646993 B
r1.026823529411767 I
r0.8969411764705855 P
r0.8536470588235339 W
11
b1011100 [
1%
#100000000
01
0%
#100500000
r0.849882352941181 W
r0.8936470588235267 P
r1.02494117647059 I
r0.9811764705882288 B
11
b1011101 [
1%
#101000000
01
0%
#101500000
r0.9788235294117582 B
r1.023058823529414 I
r0.8903529411764679 P
r0.8461176470588281 W
11
b1011110 [
1%
#102000000
01
0%
#102500000
r0.8423529411764752 W
r0.8870588235294091 P
r1.021176470588238 I
r0.9764705882352877 B
11
b1011111 [
1%
#103000000
01
0%
#103500000
r0.9741176470588171 B
r1.019294117647061 I
r0.8837647058823503 P
r0.8385882352941223 W
11
b1100000 [
1%
#104000000
01
0%
#104500000
r0.8348235294117694 W
r0.8804705882352916 P
r1.017411764705885 I
r0.9717647058823465 B
11
b1100001 [
1%
#105000000
01
0%
#105500000
r0.969411764705876 B
r1.015529411764708 I
r0.8771764705882328 P
r0.8310588235294165 W
11
b1100010 [
1%
#106000000
01
0%
#106500000
r0.8272941176470636 W
r0.873882352941174 P
r1.013647058823532 I
r0.9670588235294054 B
11
b1100011 [
1%
#107000000
01
0%
#107500000
r0.9647058823529349 B
r1.011764705882355 I
r0.8705882352941152 P
r0.8235294117647107 W
11
b1100100 [
1%
#108000000
01
0%
#108500000
r0.8197647058823578 W
r0.8672941176470564 P
r1.009882352941179 I
r0.9623529411764643 B
11
b1100101 [
1%
#109000000
01
0%
#109500000
r0.9599999999999937 B
r1.008000000000002 I
r0.8639999999999977 P
r0.8160000000000049 W
11
b1100110 [
1%
#110000000
01
0%
#110500000
r0.8122352941176521 W
r0.8607058823529389 P
r1.006117647058826 I
r0.9576470588235232 B
11
b1100111 [
1%
#111000000
01
0%
#111500000
r0.9552941176470526 B
r1.00423529411765 I
r0.8574117647058801 P
r0.8084705882352992 W
11
b1101000 [
1%
#112000000
01
0%
#112500000
r0.8047058823529463 W
r0.8541176470588213 P
r1.002352941176473 I
r0.9529411764705821 B
11
b1101001 [
1%
#113000000
01
0%
#113500000
r0.9505882352941115 B
r1.000470588235297 I
r0.8508235294117625 P
r0.8009411764705934 W
11
b1101010 [
1%
#114000000
01
0%
#114500000
r0.7971764705882405 W
r0.8475294117647038 P
r0.9985882352941202 I
r0.948235294117641 B
11
b1101011 [
1%
#115000000
01
0%
#115500000
r0.9458823529411704 B
r0.9967058823529438 I
r0.844235294117645 P
r0.7934117647058876 W
11
b1101100 [
1%
#116000000
01
0%
#116500000
r0.7896470588235347 W
r0.8409411764705862 P
r0.9948235294117673 I
r0.9435294117646998 B
11
b1101101 [
1%
#117000000
01
0%
#117500000
r0.9411764705882293 B
r0.9929411764705909 I
r0.8376470588235274 P
r0.7858823529411818 W
11
b1101110 [
1%
#118000000
01
0%
#118500000
r0.7821176470588289 W
r0.8343529411764686 P
r0.9910588235294144 I
r0.9388235294117587 B
11
b1101111 [
1%
#119000000
01
0%
#119500000
r0.9364705882352882 B
r0.989176470588238 I
r0.8310588235294099 P
r0.778352941176476 W
11
b1110000 [
1%
#120000000
01
0%
#120500000
r0.7745882352941231 W
r0.8277647058823511 P
r0.9872941176470615 I
r0.9341176470588176 B
11
b1110001 [
1%
#121000000
01
0%
#121500000
r0.9317647058823471 B
r0.9854117647058851 I
r0.8244705882352923 P
r0.7708235294117702 W
11
b1110010 [
1%
#122000000
01
0%
#122500000
r0.7670588235294173 W
r0.8211764705882335 P
r0.9835294117647086 I
r0.9294117647058765 B
11
b1110011 [
1%
#123000000
01
0%
#123500000
r0.9270588235294059 B
r0.9816470588235322 I
r0.8178823529411747 P
r0.7632941176470645 W
11
b1110100 [
1%
#124000000
01
0%
#124500000
r0.7595294117647116 W
r0.8145882352941159 P
r0.9797647058823558 I
r0.9247058823529354 B
11
b1110101 [
1%
#125000000
01
0%
#125500000
r0.9223529411764648 B
r0.9778823529411793 I
r0.8112941176470572 P
r0.7557647058823587 W
11
b1110110 [
1%
#126000000
01
0%
#126500000
r0.7520000000000058 W
r0.8079999999999984 P
r0.9760000000000029 I
r0.9199999999999943 B
11
b1110111 [
1%
#127000000
01
0%
#127500000
r0.9176470588235237 B
r0.9741176470588264 I
r0.8047058823529396 P
r0.7482352941176529 W
11
b1111000 [
1%
#128000000
01
0%
#128500000
r0.7444705882353 W
r0.8014117647058808 P
r0.97223529411765 I
r0.9152941176470532 B
11
b1111001 [
1%
#129000000
01
0%
#129500000
r0.9129411764705826 B
r0.9703529411764735 I
r0.798117647058822 P
r0.7407058823529471 W
11
b1111010 [
1%
#130000000
01
0%
#130500000
r0.7369411764705942 W
r0.7948235294117633 P
r0.9684705882352971 I
r0.910588235294112 B
11
b1111011 [
1%
#131000000
01
0%
#131500000
r0.9082352941176415 B
r0.9665882352941206 I
r0.7915294117647045 P
r0.7331764705882413 W
11
b1111100 [
1%
#132000000
01
0%
#132500000
r0.7294117647058884 W
r0.7882352941176457 P
r0.9647058823529442 I
r0.9058823529411709 B
11
b1111101 [
1%
#133000000
01
0%
#133500000
r0.9035294117647004 B
r0.9628235294117677 I
r0.7849411764705869 P
r0.7256470588235355 W
11
b1111110 [
1%
#134000000
01
0%
#134500000
r0.7218823529411826 W
r0.7816470588235281 P
r0.9609411764705913 I
r0.9011764705882298 B
11
b1111111 [
1%
#135000000
01
0%
#135500000
r0.8988235294117592 B
r0.9590588235294149 I
r0.7783529411764694 P
r0.7181176470588297 W
11
b10000000 [
1%
#136000000
01
0%
#136500000
r0.7143529411764769 W
r0.7750588235294106 P
r0.9571764705882384 I
r0.8964705882352887 B
11
b10000001 [
1%
#137000000
01
0%
#137500000
r0.8941176470588181 B
r0.955294117647062 I
r0.7717647058823518 P
r0.710588235294124 W
11
b10000010 [
1%
#138000000
01
0%
#138500000
r0.7068235294117711 W
r0.768470588235293 P
r0.9534117647058855 I
r0.8917647058823476 B
11
b10000011 [
1%
#139000000
01
0%
#139500000
r0.889411764705877 B
r0.9515294117647091 I
r0.7651764705882342 P
r0.7030588235294182 W
11
b10000100 [
1%
#140000000
01
0%
#140500000
r0.6992941176470653 W
r0.7618823529411755 P
r0.9496470588235326 I
r0.8870588235294065 B
11
b10000101 [
1%
#141000000
01
0%
#141500000
r0.8847058823529359 B
r0.9477647058823562 I
r0.7585882352941167 P
r0.6955294117647124 W
11
b10000110 [
1%
#142000000
01
0%
#142500000
r0.6917647058823595 W
r0.7552941176470579 P
r0.9458823529411797 I
r0.8823529411764653 B
11
b10000111 [
1%
#143000000
01
0%
#143500000
r0.8799999999999948 B
r0.9440000000000033 I
r0.7519999999999991 P
r0.6880000000000066 W
11
b10001000 [
1%
#144000000
01
0%
#144500000
r0.6842352941176537 W
r0.7487058823529403 P
r0.9421176470588268 I
r0.8776470588235242 B
11
b10001001 [
1%
#145000000
01
0%
#145500000
r0.8752941176470537 B
r0.9402352941176504 I
r0.7454117647058816 P
r0.6804705882353008 W
11
b10001010 [
1%
#146000000
01
0%
#146500000
r0.6767058823529479 W
r0.7421176470588228 P
r0.9383529411764739 I
r0.8729411764705831 B
11
b10001011 [
1%
#147000000
01
0%
#147500000
r0.8705882352941126 B
r0.9364705882352975 I
r0.738823529411764 P
r0.672941176470595 W
11
b10001100 [
1%
#148000000
01
0%
#148500000
r0.6691764705882421 W
r0.7355294117647052 P
r0.9345882352941211 I
r0.868235294117642 B
11
b10001101 [
1%
#149000000
01
0%
#149500000
r0.8658823529411714 B
r0.9327058823529446 I
r0.7322352941176464 P
r0.6654117647058893 W
11
b10001110 [
1%
#150000000
01
0%
#150500000
r0.6616470588235364 W
r0.7289411764705876 P
r0.9308235294117682 I
r0.8635294117647009 B
11
b10001111 [
1%
#151000000
01
0%
#151500000
r0.8611764705882303 B
r0.9289411764705917 I
r0.7256470588235289 P
r0.6578823529411835 W
11
b10010000 [
1%
#152000000
01
0%
#152500000
r0.6541176470588306 W
r0.7223529411764701 P
r0.9270588235294153 I
r0.8588235294117598 B
11
b10010001 [
1%
#153000000
01
0%
#153500000
r0.8564705882352892 B
r0.9251764705882388 I
r0.7190588235294113 P
r0.6503529411764777 W
11
b10010010 [
1%
#154000000
01
0%
#154500000
r0.6465882352941248 W
r0.7157647058823525 P
r0.9232941176470624 I
r0.8541176470588187 B
11
b10010011 [
1%
#155000000
01
0%
#155500000
r0.8517647058823481 B
r0.9214117647058859 I
r0.7124705882352937 P
r0.6428235294117719 W
11
b10010100 [
1%
#156000000
01
0%
#156500000
r0.639058823529419 W
r0.709176470588235 P
r0.9195294117647095 I
r0.8494117647058775 B
11
b10010101 [
1%
#157000000
01
0%
#157500000
r0.847058823529407 B
r0.917647058823533 I
r0.7058823529411762 P
r0.6352941176470661 W
11
b10010110 [
1%
#158000000
01
0%
#158500000
r0.6315294117647132 W
r0.7025882352941174 P
r0.9157647058823566 I
r0.8447058823529364 B
11
b10010111 [
1%
#159000000
01
0%
#159500000
r0.8423529411764659 B
r0.9138823529411801 I
r0.6992941176470586 P
r0.6277647058823603 W
11
b10011000 [
1%
#160000000
01
0%
#160500000
r0.6240000000000074 W
r0.6959999999999998 P
r0.9120000000000037 I
r0.8399999999999953 B
11
b10011001 [
1%
#161000000
01
0%
#161500000
r0.8376470588235247 B
r0.9101176470588273 I
r0.6927058823529411 P
r0.6202352941176545 W
11
b10011010 [
1%
#162000000
01
0%
#162500000
r0.6164705882353017 W
r0.6894117647058823 P
r0.9082352941176508 I
r0.8352941176470542 B
11
b10011011 [
1%
#163000000
01
0%
#163500000
r0.8329411764705836 B
r0.9063529411764744 I
r0.6861176470588235 P
r0.6127058823529488 W
11
b10011100 [
1%
#164000000
01
0%
#164500000
r0.6089411764705959 W
r0.6828235294117647 P
r0.9044705882352979 I
r0.8305882352941131 B
11
b10011101 [
1%
#165000000
01
0%
#165500000
r0.8282352941176425 B
r0.9025882352941215 I
r0.6795294117647059 P
r0.605176470588243 W
11
b10011110 [
1%
#166000000
01
0%
#166500000
r0.6014117647058901 W
r0.6762352941176472 P
r0.900705882352945 I
r0.825882352941172 B
11
b10011111 [
1%
#167000000
01
0%
#167500000
r0.8235294117647014 B
r0.8988235294117686 I
r0.6729411764705884 P
r0.5976470588235372 W
11
b10100000 [
1%
#168000000
01
0%
#168500000
r0.5938823529411843 W
r0.6696470588235296 P
r0.8969411764705921 I
r0.8211764705882308 B
11
b10100001 [
1%
#169000000
01
0%
#169500000
r0.8188235294117603 B
r0.8950588235294157 I
r0.6663529411764708 P
r0.5901176470588314 W
11
b10100010 [
1%
#170000000
01
0%
#170500000
r0.5863529411764785 W
r0.663058823529412 P
r0.8931764705882392 I
r0.8164705882352897 B
11
b10100011 [
1%
#171000000
01
0%
#171500000
r0.8141176470588192 B
r0.8912941176470628 I
r0.6597647058823533 P
r0.5825882352941256 W
11
b10100100 [
1%
#172000000
01
0%
#172500000
r0.5788235294117727 W
r0.6564705882352945 P
r0.8894117647058863 I
r0.8117647058823486 B
11
b10100101 [
1%
#173000000
01
0%
#173500000
r0.8094117647058781 B
r0.8875294117647099 I
r0.6531764705882357 P
r0.5750588235294198 W
11
b10100110 [
1%
#174000000
01
0%
#174500000
r0.5712941176470669 W
r0.6498823529411769 P
r0.8856470588235335 I
r0.8070588235294075 B
11
b10100111 [
1%
#175000000
01
0%
#175500000
r0.8047058823529369 B
r0.883764705882357 I
r0.6465882352941181 P
r0.5675294117647141 W
11
b10101000 [
1%
#176000000
01
0%
#176500000
r0.5637647058823612 W
r0.6432941176470593 P
r0.8818823529411806 I
r0.8023529411764664 B
11
b10101001 [
1%
#177000000
01
0%
#177500000
r0.7999999999999958 B
r0.8800000000000041 I
r0.6400000000000006 P
r0.5600000000000083 W
11
b10101010 [
1%
#178000000
01
0%
#178500000
r0.5562352941176554 W
r0.6367058823529418 P
r0.8781176470588277 I
r0.7976470588235253 B
11
b10101011 [
1%
#179000000
01
0%
#179500000
r0.7952941176470547 B
r0.8762352941176512 I
r0.633411764705883 P
r0.5524705882353025 W
11
b10101100 [
1%
#180000000
01
0%
